# 3ds Max Wavefront OBJ Exporter v0.97b - (c)2007 guruware
# File Created: 12.04.2017 16:07:44

#
# object porte_bi_low
#

v  12.2550 2.6900 -0.3643
v  12.2550 2.2699 -0.3643
v  12.2550 2.6900 -0.1606
v  12.2550 2.2699 -0.1606
v  13.0324 2.1377 -0.1208
v  13.0324 -0.2187 -0.1208
v  12.4845 -0.2187 -0.1208
v  12.4845 2.1377 -0.1208
v  13.0324 -0.2187 1.0378
v  12.4845 -0.2187 1.0378
v  13.6167 2.5237 -0.1208
v  13.6167 -0.2187 -0.1208
v  12.9644 -0.2187 -0.1208
v  12.9644 2.5237 -0.1208
v  13.6167 -0.2187 1.3175
v  12.9644 -0.2187 1.3175
v  12.0734 4.6448 0.1680
v  11.9483 4.7353 0.1680
v  11.9483 4.7353 -0.7472
v  12.0734 4.6448 -0.7472
v  12.4075 4.9456 -0.7472
v  12.2617 5.1281 -0.7472
v  12.2617 5.1281 0.1680
v  12.4075 4.9456 0.1680
v  12.0717 2.6891 0.1680
v  12.4093 2.6754 0.1680
v  12.0717 2.6891 -0.7472
v  12.4093 2.6754 -0.7472
v  12.0734 0.1742 0.1680
v  12.0734 0.1742 -0.7472
v  11.9834 0.0470 -0.7472
v  11.9834 0.0470 0.1680
v  12.4075 0.0192 -0.7472
v  12.4075 0.0192 0.1680
v  12.2617 -0.1633 0.1680
v  12.2617 -0.1633 -0.7472
v  12.2961 4.4226 -0.6527
v  12.2961 0.0285 -0.6527
v  11.8235 0.0285 -0.6527
v  12.2961 4.4226 -0.3829
v  12.2961 0.0285 -0.3829
v  11.8235 0.0285 -0.3829
v  12.0990 4.8105 -0.6527
v  12.0990 4.8105 -0.3829
v  11.8235 4.9719 -0.6527
v  11.8235 4.9719 -0.3829
v  11.8235 4.4226 -0.3829
v  6.8491 2.6900 -0.3643
v  6.8491 2.2699 -0.3643
v  6.8491 2.6900 -0.1606
v  6.8491 2.2699 -0.1606
v  6.0716 2.1377 -0.1208
v  6.0716 -0.2187 -0.1208
v  6.6196 -0.2187 -0.1208
v  6.6196 2.1377 -0.1208
v  6.0716 -0.2187 1.0378
v  6.6196 -0.2187 1.0378
v  5.4874 2.5237 -0.1208
v  5.4874 -0.2187 -0.1208
v  6.1397 -0.2187 -0.1208
v  6.1397 2.5237 -0.1208
v  5.4874 -0.2187 1.3175
v  6.1397 -0.2187 1.3175
v  9.5520 4.7281 -0.7472
v  9.5520 4.7281 0.1680
v  9.5520 5.1361 0.1680
v  9.5520 5.1361 -0.7472
v  9.5520 0.0541 0.1680
v  9.5520 0.0541 -0.7472
v  9.5520 -0.1712 -0.7472
v  9.5520 -0.1712 0.1680
v  7.0307 4.6448 0.1680
v  7.1557 4.7353 0.1680
v  7.1557 4.7353 -0.7472
v  7.0307 4.6448 -0.7472
v  6.6965 4.9456 -0.7472
v  6.8424 5.1281 -0.7472
v  6.8424 5.1281 0.1680
v  6.6965 4.9456 0.1680
v  7.0323 2.6891 0.1680
v  6.6947 2.6754 0.1680
v  7.0323 2.6891 -0.7472
v  6.6947 2.6754 -0.7472
v  7.0307 0.1742 0.1680
v  7.0307 0.1742 -0.7472
v  7.1207 0.0470 -0.7472
v  7.1207 0.0470 0.1680
v  6.6965 0.0192 -0.7472
v  6.6965 0.0192 0.1680
v  6.8424 -0.1633 0.1680
v  6.8424 -0.1633 -0.7472
v  6.8080 4.4226 -0.6527
v  6.8080 0.0285 -0.6527
v  7.2805 0.0285 -0.6527
v  6.8080 4.4226 -0.3829
v  6.8080 0.0285 -0.3829
v  7.2805 0.0285 -0.3829
v  7.0051 4.8105 -0.6527
v  7.0051 4.8105 -0.3829
v  7.2805 4.9719 -0.6527
v  7.2805 4.9719 -0.3829
v  7.2805 4.4226 -0.3829
v  9.4839 4.9719 -0.6527
v  9.4839 4.9719 -0.3829
v  9.4839 4.4226 -0.3829
v  9.4839 0.0285 -0.3829
v  9.4839 0.0285 -0.6527
v  9.5362 2.2699 -0.3643
v  9.5429 2.2699 -0.1606
v  9.5429 2.6900 -0.1606
v  9.5362 2.6900 -0.3643
v  9.6245 4.9719 -0.6527
v  9.6245 4.9719 -0.3829
v  9.6245 4.4226 -0.3829
v  9.6245 0.0285 -0.3829
v  9.6245 0.0285 -0.6527
v  9.6601 4.9719 -0.6069
v  9.6601 4.9719 -0.4287
v  9.6601 4.4226 -0.4287
v  9.6601 0.0285 -0.4287
v  9.6601 0.0285 -0.6069
v  9.6601 4.4226 -0.6069
v  9.5362 2.2699 -0.3643
v  9.5429 2.2699 -0.1606
v  9.5429 2.6900 -0.1606
v  9.5362 2.6900 -0.3643
# 126 vertices

vn 0.0000 0.0000 -1.0000
vn 0.0000 0.0000 -1.0000
vn 0.0000 0.0000 -1.0000
vn 0.0000 0.0000 -1.0000
vn 1.0000 0.0000 -0.0000
vn 1.0000 0.0000 -0.0000
vn 1.0000 0.0000 -0.0000
vn 1.0000 0.0000 -0.0000
vn 0.0000 -1.0000 -0.0000
vn 0.0000 -1.0000 -0.0000
vn 0.0000 -1.0000 -0.0000
vn 0.0000 -1.0000 -0.0000
vn 1.0000 0.0000 -0.0000
vn 1.0000 0.0000 -0.0000
vn 1.0000 0.0000 -0.0000
vn -1.0000 0.0000 -0.0000
vn -1.0000 0.0000 -0.0000
vn -1.0000 0.0000 -0.0000
vn 0.0000 0.4412 0.8974
vn 0.0000 0.4412 0.8974
vn 0.0000 0.4412 0.8974
vn 0.0000 0.4412 0.8974
vn 0.0000 -1.0000 -0.0000
vn 0.0000 -1.0000 -0.0000
vn 0.0000 -1.0000 -0.0000
vn 0.0000 -1.0000 -0.0000
vn 1.0000 0.0000 -0.0000
vn 1.0000 0.0000 -0.0000
vn 1.0000 0.0000 -0.0000
vn -1.0000 0.0000 -0.0000
vn -1.0000 0.0000 -0.0000
vn -1.0000 0.0000 -0.0000
vn 0.0000 0.4645 0.8856
vn 0.0000 0.4645 0.8856
vn 0.0000 0.4645 0.8856
vn 0.0000 0.4645 0.8856
vn 0.0000 -1.0000 -0.0000
vn 0.0000 -1.0000 -0.0000
vn 0.0000 -1.0000 -0.0000
vn 0.0000 -1.0000 -0.0000
vn -0.5865 -0.8100 -0.0000
vn -0.5865 -0.8100 -0.0000
vn -0.5865 -0.8100 -0.0000
vn -0.5865 -0.8100 -0.0000
vn 0.0030 -1.0000 -0.0000
vn 0.0030 -1.0000 -0.0000
vn 0.0030 -1.0000 -0.0000
vn 0.0030 -1.0000 -0.0000
vn 0.7813 0.6242 -0.0000
vn 0.7813 0.6242 -0.0000
vn 0.7813 0.6242 -0.0000
vn 0.7813 0.6242 -0.0000
vn 0.0029 1.0000 -0.0000
vn 0.0029 1.0000 -0.0000
vn 0.0029 1.0000 -0.0000
vn 0.0029 1.0000 -0.0000
vn -1.0000 0.0008 -0.0000
vn -1.0000 0.0008 -0.0000
vn -1.0000 0.0008 -0.0000
vn -1.0000 0.0008 -0.0000
vn 1.0000 0.0008 -0.0000
vn 1.0000 0.0008 -0.0000
vn 1.0000 0.0008 -0.0000
vn 1.0000 0.0008 -0.0000
vn -0.8166 0.5773 -0.0000
vn -0.8166 0.5773 -0.0000
vn -0.8166 0.5773 -0.0000
vn -0.8166 0.5773 -0.0000
vn 0.0029 1.0000 -0.0000
vn 0.0029 1.0000 -0.0000
vn 0.0029 1.0000 -0.0000
vn 0.0029 1.0000 -0.0000
vn 0.7813 -0.6242 -0.0000
vn 0.7813 -0.6242 -0.0000
vn 0.7813 -0.6242 -0.0000
vn 0.7813 -0.6242 -0.0000
vn 0.0029 -1.0000 -0.0000
vn 0.0029 -1.0000 -0.0000
vn 0.0029 -1.0000 -0.0000
vn 0.0029 -1.0000 -0.0000
vn -1.0000 -0.0006 -0.0000
vn -1.0000 -0.0006 -0.0000
vn -1.0000 -0.0006 -0.0000
vn -1.0000 -0.0006 -0.0000
vn 1.0000 -0.0007 -0.0000
vn 1.0000 -0.0007 -0.0000
vn 1.0000 -0.0007 -0.0000
vn 1.0000 -0.0007 -0.0000
vn 1.0000 0.0000 -0.0000
vn 1.0000 0.0000 -0.0000
vn 1.0000 0.0000 -0.0000
vn 1.0000 0.0000 -0.0000
vn 0.8916 0.4529 -0.0000
vn 0.8916 0.4529 -0.0000
vn 0.8916 0.4529 -0.0000
vn 0.8916 0.4529 -0.0000
vn 0.5054 0.8629 -0.0000
vn 0.5054 0.8629 -0.0000
vn 0.5054 0.8629 -0.0000
vn 0.5054 0.8629 -0.0000
vn 0.0000 0.0000 -1.0000
vn 0.0000 0.0000 -1.0000
vn 0.0000 0.0000 -1.0000
vn 0.0000 0.0000 -1.0000
vn -1.0000 0.0000 -0.0000
vn -1.0000 0.0000 -0.0000
vn -1.0000 0.0000 -0.0000
vn -1.0000 0.0000 -0.0000
vn 0.0000 -1.0000 -0.0000
vn 0.0000 -1.0000 -0.0000
vn 0.0000 -1.0000 -0.0000
vn 0.0000 -1.0000 -0.0000
vn -1.0000 0.0000 -0.0000
vn -1.0000 0.0000 -0.0000
vn -1.0000 0.0000 -0.0000
vn 1.0000 0.0000 -0.0000
vn 1.0000 0.0000 -0.0000
vn 1.0000 0.0000 -0.0000
vn 0.0000 0.4412 0.8974
vn 0.0000 0.4412 0.8974
vn 0.0000 0.4412 0.8974
vn 0.0000 0.4412 0.8974
vn 0.0000 -1.0000 -0.0000
vn 0.0000 -1.0000 -0.0000
vn 0.0000 -1.0000 -0.0000
vn 0.0000 -1.0000 -0.0000
vn -1.0000 0.0000 -0.0000
vn -1.0000 0.0000 -0.0000
vn -1.0000 0.0000 -0.0000
vn 1.0000 0.0000 -0.0000
vn 1.0000 0.0000 -0.0000
vn 1.0000 0.0000 -0.0000
vn 0.0000 0.4645 0.8856
vn 0.0000 0.4645 0.8856
vn 0.0000 0.4645 0.8856
vn 0.0000 0.4645 0.8856
vn 0.0000 -1.0000 -0.0000
vn 0.0000 -1.0000 -0.0000
vn 0.0000 -1.0000 -0.0000
vn 0.0000 -1.0000 -0.0000
vn 0.5865 -0.8100 -0.0000
vn 0.5865 -0.8100 -0.0000
vn 0.5865 -0.8100 -0.0000
vn 0.5865 -0.8100 -0.0000
vn -0.0030 -1.0000 -0.0000
vn -0.0030 -1.0000 -0.0000
vn -0.0030 -1.0000 -0.0000
vn -0.0030 -1.0000 -0.0000
vn -0.7813 0.6242 -0.0000
vn -0.7813 0.6242 -0.0000
vn -0.7813 0.6242 -0.0000
vn -0.7813 0.6242 -0.0000
vn -0.0029 1.0000 -0.0000
vn -0.0029 1.0000 -0.0000
vn -0.0029 1.0000 -0.0000
vn -0.0029 1.0000 -0.0000
vn 1.0000 0.0008 -0.0000
vn 1.0000 0.0008 -0.0000
vn 1.0000 0.0008 -0.0000
vn 1.0000 0.0008 -0.0000
vn -1.0000 0.0008 -0.0000
vn -1.0000 0.0008 -0.0000
vn -1.0000 0.0008 -0.0000
vn -1.0000 0.0008 -0.0000
vn 0.8166 0.5773 -0.0000
vn 0.8166 0.5773 -0.0000
vn 0.8166 0.5773 -0.0000
vn 0.8166 0.5773 -0.0000
vn -0.0029 1.0000 -0.0000
vn -0.0029 1.0000 -0.0000
vn -0.0029 1.0000 -0.0000
vn -0.0029 1.0000 -0.0000
vn -0.7813 -0.6242 -0.0000
vn -0.7813 -0.6242 -0.0000
vn -0.7813 -0.6242 -0.0000
vn -0.7813 -0.6242 -0.0000
vn -0.0029 -1.0000 -0.0000
vn -0.0029 -1.0000 -0.0000
vn -0.0029 -1.0000 -0.0000
vn -0.0029 -1.0000 -0.0000
vn 1.0000 -0.0006 -0.0000
vn 1.0000 -0.0006 -0.0000
vn 1.0000 -0.0006 -0.0000
vn 1.0000 -0.0006 -0.0000
vn -1.0000 -0.0007 -0.0000
vn -1.0000 -0.0007 -0.0000
vn -1.0000 -0.0007 -0.0000
vn -1.0000 -0.0007 -0.0000
vn -1.0000 0.0000 -0.0000
vn -1.0000 0.0000 -0.0000
vn -1.0000 0.0000 -0.0000
vn -1.0000 0.0000 -0.0000
vn -0.8916 0.4529 -0.0000
vn -0.8916 0.4529 -0.0000
vn -0.8916 0.4529 -0.0000
vn -0.8916 0.4529 -0.0000
vn -0.5054 0.8629 -0.0000
vn -0.5054 0.8629 -0.0000
vn -0.5054 0.8629 -0.0000
vn -0.5054 0.8629 -0.0000
vn 0.0000 1.0000 -0.0000
vn 0.0000 1.0000 -0.0000
vn 0.0000 1.0000 -0.0000
vn 0.0000 1.0000 -0.0000
vn 0.0000 0.0000 1.0000
vn 0.0000 0.0000 1.0000
vn 0.0000 0.0000 1.0000
vn 0.0000 0.0000 1.0000
vn 0.0000 1.0000 -0.0000
vn 0.0000 1.0000 -0.0000
vn 0.0000 1.0000 -0.0000
vn 0.0000 1.0000 -0.0000
vn 0.0000 1.0000 -0.0000
vn 0.0000 1.0000 -0.0000
vn 0.0000 1.0000 -0.0000
vn 0.0000 1.0000 -0.0000
vn 1.0000 0.0000 -0.0000
vn 1.0000 0.0000 -0.0000
vn 1.0000 0.0000 -0.0000
vn 1.0000 0.0000 -0.0000
vn 1.0000 0.0000 -0.0000
vn 1.0000 0.0000 -0.0000
vn 1.0000 0.0000 -0.0000
vn 1.0000 0.0000 -0.0000
vn 0.0000 1.0000 -0.0000
vn 0.0000 1.0000 -0.0000
vn 0.0000 1.0000 -0.0000
vn 0.0000 1.0000 -0.0000
vn -0.9995 0.0000 0.0331
vn -0.9995 0.0000 0.0331
vn -0.9995 0.0000 0.0331
vn -0.9995 0.0000 0.0331
vn 0.9995 0.0000 -0.0331
vn 0.9995 0.0000 -0.0331
vn 0.9995 0.0000 -0.0331
vn 0.9995 0.0000 -0.0331
vn 0.0000 0.0000 1.0000
vn 0.0000 0.0000 1.0000
vn 0.0000 0.0000 1.0000
vn 0.0000 0.0000 1.0000
vn 0.0000 1.0000 -0.0000
vn 0.0000 1.0000 -0.0000
vn 0.0000 1.0000 -0.0000
vn 0.0000 1.0000 -0.0000
vn 0.0000 -0.0000 1.0000
vn 0.0000 0.0000 1.0000
vn 0.0000 0.0000 1.0000
vn 0.0000 -0.0000 1.0000
vn 0.0000 0.0000 1.0000
vn 0.0000 0.0000 1.0000
vn 0.0000 0.0000 1.0000
vn 0.0000 0.0000 1.0000
vn 0.0000 -0.0000 1.0000
vn -0.0000 -0.0000 1.0000
vn 0.0000 -0.0000 1.0000
vn 0.0000 -0.0000 1.0000
vn 0.0000 0.0000 1.0000
vn 0.0000 0.0000 1.0000
vn 0.0000 0.0000 1.0000
vn 0.0000 0.0000 1.0000
vn 0.0000 0.0000 1.0000
vn 0.0000 0.0000 1.0000
vn 0.0000 0.0000 1.0000
vn 0.0000 0.0000 1.0000
vn 0.0000 0.0000 1.0000
vn 0.0000 0.0000 1.0000
vn 0.0000 -0.0000 1.0000
vn -0.0000 -0.0000 1.0000
vn 0.0000 -1.0000 -0.0000
vn 0.0000 -1.0000 -0.0000
vn 0.0000 -0.7071 0.7071
vn 0.0000 -0.7071 0.7071
vn 0.0000 0.0000 1.0000
vn 0.0000 0.0000 1.0000
vn 0.0000 -0.0000 1.0000
vn 0.0000 -0.0000 1.0000
vn 0.0000 -1.0000 -0.0000
vn 0.0000 -1.0000 -0.0000
vn 0.0000 -0.7071 0.7071
vn 0.0000 -0.7071 0.7071
vn 0.0000 -0.0000 1.0000
vn 0.0000 -0.7071 0.7071
vn 0.0000 -0.7071 0.7071
vn 0.0000 -0.0000 1.0000
vn -0.0000 -0.0000 1.0000
vn -0.0000 -0.0000 1.0000
vn 0.0000 0.0000 1.0000
vn 0.0000 0.0000 1.0000
vn 0.0000 0.0000 1.0000
vn 0.0000 0.0000 1.0000
vn 0.0000 0.0000 1.0000
vn 0.0000 0.0000 1.0000
vn -0.0000 -0.0000 1.0000
vn -0.0000 -0.0000 1.0000
vn -0.0000 -0.0000 1.0000
vn 0.0000 -0.0000 1.0000
vn 0.0000 0.0000 1.0000
vn 0.0000 0.0000 1.0000
vn 0.0000 0.0000 1.0000
vn 0.0000 0.0000 1.0000
vn 0.0000 0.0000 1.0000
vn 0.0000 0.0000 1.0000
vn 0.0000 0.0000 1.0000
vn 0.0000 0.0000 1.0000
vn 0.0000 0.0000 1.0000
vn 0.0000 -0.0000 1.0000
vn -0.0000 -0.0000 1.0000
vn 0.0000 0.0000 1.0000
vn 0.0000 -0.7071 0.7071
vn 0.0000 -1.0000 -0.0000
vn 0.0000 -1.0000 -0.0000
vn 0.0000 -0.7071 0.7071
vn 0.0000 0.0000 1.0000
vn 0.0000 -0.0000 1.0000
vn 0.0000 -0.0000 1.0000
vn 0.0000 0.0000 1.0000
vn 0.0000 -0.7071 0.7071
vn 0.0000 -1.0000 -0.0000
vn 0.0000 -1.0000 -0.0000
vn 0.0930 -0.6796 0.7276
vn 0.0000 -0.7071 0.7071
vn 0.0000 -0.7071 0.7071
vn 0.0000 -0.0000 1.0000
vn 0.0000 -0.0000 1.0000
vn 0.0000 -0.0000 1.0000
vn 0.1268 -0.0000 0.9919
vn 0.1268 0.0000 0.9919
vn 0.0000 0.0000 1.0000
vn 0.0000 -0.7071 0.7071
vn 0.0930 -0.6796 0.7276
vn 0.1268 -0.0000 0.9919
vn 0.0000 -0.0000 1.0000
vn 0.0000 0.0000 1.0000
vn 0.0000 -0.0000 1.0000
vn 0.0000 -0.0000 1.0000
vn 0.0000 0.0000 1.0000
vn 0.0000 -0.0000 1.0000
vn 0.0000 -0.7071 0.7071
vn 0.0000 -0.7071 0.7071
vn 0.0000 -0.0000 1.0000
vn 0.0930 -0.6796 0.7276
vn 0.1641 -0.7579 0.6313
vn 0.2516 -0.0000 0.9678
vn 0.1268 -0.0000 0.9919
vn 0.0000 -1.0000 -0.0000
vn 0.0000 -1.0000 -0.0000
vn 0.1641 -0.7579 0.6313
vn 0.0930 -0.6796 0.7276
vn 0.1268 -0.0000 0.9919
vn 0.2516 -0.0000 0.9678
vn 0.2516 0.0000 0.9678
vn 0.1268 0.0000 0.9919
# 352 vertex normals

vt 0.5453 0.7658 0.0000
vt 0.5453 0.9619 0.0000
vt 0.5140 0.9619 0.0000
vt 0.5140 0.7658 0.0000
vt 0.6752 0.8600 0.0000
vt 0.6600 0.8600 0.0000
vt 0.6600 0.8286 0.0000
vt 0.6752 0.8286 0.0000
vt 0.1265 0.7984 0.0000
vt 0.1416 0.7984 0.0000
vt 0.1416 0.9946 0.0000
vt 0.1265 0.9946 0.0000
vt 0.8783 0.6304 0.0000
vt 0.7920 0.4545 0.0000
vt 0.8783 0.4545 0.0000
vt 0.8783 0.8172 0.0000
vt 0.7920 0.8172 0.0000
vt 0.8783 0.6413 0.0000
vt 0.4107 0.9474 0.0000
vt 0.4107 0.7658 0.0000
vt 0.4515 0.7661 0.0000
vt 0.4515 0.9477 0.0000
vt 0.8328 0.8280 0.0000
vt 0.8328 0.9147 0.0000
vt 0.7920 0.9147 0.0000
vt 0.7920 0.8280 0.0000
vt 0.2582 0.4438 0.0000
vt 0.2582 0.6752 0.0000
vt 0.1634 0.6251 0.0000
vt 0.7920 0.0555 0.0000
vt 0.8868 0.0054 0.0000
vt 0.8868 0.2367 0.0000
vt 0.8891 0.6300 0.0000
vt 0.8891 0.4182 0.0000
vt 0.9377 0.4186 0.0000
vt 0.9377 0.6304 0.0000
vt 0.0054 0.9321 0.0000
vt 0.0054 0.8245 0.0000
vt 0.0540 0.8245 0.0000
vt 0.0540 0.9321 0.0000
vt 0.6340 0.8177 0.0000
vt 0.6340 0.8084 0.0000
vt 0.7022 0.8084 0.0000
vt 0.7022 0.8177 0.0000
vt 0.6340 0.6291 0.0000
vt 0.7022 0.6291 0.0000
vt 0.7130 0.4361 0.0000
vt 0.7130 0.4218 0.0000
vt 0.7812 0.4218 0.0000
vt 0.7812 0.4361 0.0000
vt 0.6340 0.4295 0.0000
vt 0.6340 0.4155 0.0000
vt 0.7022 0.4155 0.0000
vt 0.7022 0.4295 0.0000
vt 0.0054 0.8136 0.0000
vt 0.0054 0.6677 0.0000
vt 0.0736 0.6677 0.0000
vt 0.0736 0.8136 0.0000
vt 0.7812 0.6056 0.0000
vt 0.7130 0.6056 0.0000
vt 0.0736 0.4800 0.0000
vt 0.0054 0.4800 0.0000
vt 0.0054 0.4700 0.0000
vt 0.0736 0.4700 0.0000
vt 0.0054 0.4575 0.0000
vt 0.0736 0.4575 0.0000
vt 0.7130 0.8040 0.0000
vt 0.7812 0.8040 0.0000
vt 0.7812 0.8169 0.0000
vt 0.7130 0.8169 0.0000
vt 0.7130 0.0054 0.0000
vt 0.7812 0.0054 0.0000
vt 0.7812 0.2082 0.0000
vt 0.7130 0.2082 0.0000
vt 0.9570 0.0487 0.0000
vt 0.9771 0.0487 0.0000
vt 0.9771 0.3768 0.0000
vt 0.9570 0.3768 0.0000
vt 0.9570 0.0188 0.0000
vt 0.9771 0.0188 0.0000
vt 0.9570 0.0054 0.0000
vt 0.9771 0.0054 0.0000
vt 0.5874 0.9619 0.0000
vt 0.5561 0.9619 0.0000
vt 0.5561 0.7658 0.0000
vt 0.5874 0.7658 0.0000
vt 0.8588 0.8422 0.0000
vt 0.8588 0.8735 0.0000
vt 0.8436 0.8735 0.0000
vt 0.8436 0.8422 0.0000
vt 0.9946 0.7982 0.0000
vt 0.9946 0.9943 0.0000
vt 0.9794 0.9943 0.0000
vt 0.9794 0.7982 0.0000
vt 0.8694 0.4436 0.0000
vt 0.7920 0.2859 0.0000
vt 0.8694 0.2475 0.0000
vt 0.2497 0.6860 0.0000
vt 0.2497 0.8620 0.0000
vt 0.1634 0.6860 0.0000
vt 0.5031 0.9477 0.0000
vt 0.4623 0.9474 0.0000
vt 0.4623 0.7658 0.0000
vt 0.5031 0.7661 0.0000
vt 0.7538 0.9145 0.0000
vt 0.7130 0.9145 0.0000
vt 0.7130 0.8278 0.0000
vt 0.7538 0.8278 0.0000
vt 0.3639 0.6751 0.0000
vt 0.2691 0.4939 0.0000
vt 0.3639 0.4438 0.0000
vt 0.3762 0.6859 0.0000
vt 0.3762 0.8907 0.0000
vt 0.2691 0.6859 0.0000
vt 0.8976 0.0054 0.0000
vt 0.9462 0.0058 0.0000
vt 0.9462 0.2177 0.0000
vt 0.8976 0.2173 0.0000
vt 0.9288 0.3552 0.0000
vt 0.8802 0.3552 0.0000
vt 0.8802 0.2475 0.0000
vt 0.9288 0.2475 0.0000
vt 0.6340 0.4404 0.0000
vt 0.7022 0.4404 0.0000
vt 0.7022 0.4498 0.0000
vt 0.6340 0.4498 0.0000
vt 0.6340 0.3859 0.0000
vt 0.7022 0.3859 0.0000
vt 0.7022 0.4003 0.0000
vt 0.6340 0.4003 0.0000
vt 0.1526 0.7876 0.0000
vt 0.0844 0.7876 0.0000
vt 0.0844 0.6415 0.0000
vt 0.1526 0.6415 0.0000
vt 0.6340 0.2165 0.0000
vt 0.7022 0.2165 0.0000
vt 0.0844 0.4537 0.0000
vt 0.0844 0.4438 0.0000
vt 0.1526 0.4438 0.0000
vt 0.1526 0.4537 0.0000
vt 0.0736 0.4438 0.0000
vt 0.0054 0.4438 0.0000
vt 0.6340 0.0183 0.0000
vt 0.6340 0.0054 0.0000
vt 0.7022 0.0054 0.0000
vt 0.7022 0.0183 0.0000
vt 0.7130 0.4109 0.0000
vt 0.7812 0.4109 0.0000
vt 0.9686 0.4746 0.0000
vt 0.9686 0.8025 0.0000
vt 0.9485 0.8025 0.0000
vt 0.9485 0.4746 0.0000
vt 0.9686 0.4446 0.0000
vt 0.9485 0.4446 0.0000
vt 0.9485 0.4310 0.0000
vt 0.9686 0.4310 0.0000
vt 0.9485 0.4192 0.0000
vt 0.9686 0.4192 0.0000
vt 0.1156 0.9946 0.0000
vt 0.0844 0.9945 0.0000
vt 0.0844 0.7984 0.0000
vt 0.1156 0.7985 0.0000
vt 0.8436 0.8280 0.0000
vt 0.8588 0.8280 0.0000
vt 0.3988 0.6859 0.0000
vt 0.3988 0.7061 0.0000
vt 0.3870 0.7061 0.0000
vt 0.3870 0.6859 0.0000
vt 0.9927 0.7463 0.0000
vt 0.9927 0.7873 0.0000
vt 0.9794 0.7873 0.0000
vt 0.9794 0.7463 0.0000
vt 0.9794 0.4182 0.0000
vt 0.9927 0.4182 0.0000
vt 0.9519 0.4182 0.0000
vt 0.9652 0.4182 0.0000
vt 0.7798 0.8733 0.0000
vt 0.7646 0.8733 0.0000
vt 0.7646 0.8419 0.0000
vt 0.7798 0.8419 0.0000
vt 0.6492 0.8286 0.0000
vt 0.6492 0.8600 0.0000
vt 0.6340 0.8600 0.0000
vt 0.6340 0.8286 0.0000
vt 0.9377 0.6413 0.0000
vt 0.9377 0.8374 0.0000
vt 0.9064 0.8374 0.0000
vt 0.9064 0.6413 0.0000
vt 0.7646 0.8278 0.0000
vt 0.7798 0.8278 0.0000
vt 0.3853 0.0055 0.0000
vt 0.3989 0.0164 0.0000
vt 0.3698 0.0398 0.0000
vt 0.3630 0.0305 0.0000
vt 0.3999 0.2191 0.0000
vt 0.3696 0.2191 0.0000
vt 0.2177 0.0307 0.0000
vt 0.2166 0.0054 0.0000
vt 0.0192 0.0057 0.0000
vt 0.0307 0.0307 0.0000
vt 0.0213 0.0374 0.0000
vt 0.0056 0.0166 0.0000
vt 0.0222 0.2193 0.0000
vt 0.0054 0.2193 0.0000
vt 0.5982 0.9303 0.0000
vt 0.6183 0.9303 0.0000
vt 0.6183 0.9657 0.0000
vt 0.5982 0.9657 0.0000
vt 0.4254 0.3979 0.0000
vt 0.4459 0.3858 0.0000
vt 0.4459 0.4268 0.0000
vt 0.4107 0.4268 0.0000
vt 0.5982 0.7658 0.0000
vt 0.6183 0.7658 0.0000
vt 0.4459 0.7549 0.0000
vt 0.4107 0.7549 0.0000
vt 0.3861 0.4327 0.0000
vt 0.3637 0.4077 0.0000
vt 0.3704 0.3984 0.0000
vt 0.3997 0.4218 0.0000
vt 0.2174 0.4329 0.0000
vt 0.2184 0.4077 0.0000
vt 0.0200 0.4329 0.0000
vt 0.0064 0.4220 0.0000
vt 0.0220 0.4012 0.0000
vt 0.0314 0.4079 0.0000
vt 0.3948 0.6219 0.0000
vt 0.3948 0.6572 0.0000
vt 0.3747 0.6572 0.0000
vt 0.3747 0.6219 0.0000
vt 0.4254 0.3627 0.0000
vt 0.4107 0.3337 0.0000
vt 0.4459 0.3337 0.0000
vt 0.4459 0.3747 0.0000
vt 0.3948 0.4570 0.0000
vt 0.3747 0.4570 0.0000
vt 0.4107 0.0057 0.0000
vt 0.4459 0.0056 0.0000
vt 0.6100 0.3335 0.0000
vt 0.6100 0.3745 0.0000
vt 0.6100 0.0054 0.0000
vt 0.6097 0.3856 0.0000
vt 0.6097 0.4266 0.0000
vt 0.6097 0.7547 0.0000
vt 0.6232 0.0056 0.0000
vt 0.6232 0.3337 0.0000
vt 0.3781 0.4438 0.0000
vt 0.3914 0.4438 0.0000
vt 0.6232 0.3747 0.0000
# 249 texture coords

g porte_bi_low
s off
f 1/2/1 2/3/2 123/4/3 126/1/4 
f 3/6/5 4/7/6 2/8/7 1/5/8 
f 123/10/9 2/11/10 4/12/11 124/9/12 
f 5/13/13 9/14/14 6/15/15 
f 7/16/16 10/17/17 8/18/18 
f 10/20/19 9/21/20 5/22/21 8/19/22 
f 9/24/23 10/25/24 7/26/25 6/23/26 
f 11/27/27 15/28/28 12/29/29 
f 13/30/30 16/31/31 14/32/32 
f 16/34/33 15/35/34 11/36/35 14/33/36 
f 15/38/37 16/39/38 13/40/39 12/37/40 
f 18/42/41 19/43/42 20/44/43 17/41/44 
f 65/45/45 64/46/46 19/43/47 18/42/48 
f 22/48/49 23/49/50 24/50/51 21/47/52 
f 67/52/53 66/53/54 23/54/55 22/51/56 
f 27/56/57 25/57/58 17/58/59 20/55/60 
f 26/59/61 28/60/62 21/47/63 24/50/64 
f 30/62/65 31/63/66 32/64/67 29/61/68 
f 31/63/69 69/65/70 68/66/71 32/64/72 
f 34/68/73 35/69/74 36/70/75 33/67/76 
f 35/72/77 71/73/78 70/74/79 36/71/80 
f 29/61/81 25/57/82 27/56/83 30/62/84 
f 33/67/85 28/60/86 26/59/87 34/68/88 
f 40/76/89 41/77/90 38/78/91 37/75/92 
f 44/80/93 40/76/94 37/75/95 43/79/96 
f 43/79/97 45/81/98 46/82/99 44/80/100 
f 108/84/101 49/85/102 48/86/103 111/83/104 
f 49/88/105 51/89/106 50/90/107 48/87/108 
f 51/92/109 49/93/110 108/94/111 109/91/112 
f 52/95/113 53/96/114 56/97/115 
f 54/98/116 55/99/117 57/100/118 
f 52/102/119 56/103/120 57/104/121 55/101/122 
f 54/106/123 57/107/124 56/108/125 53/105/126 
f 58/109/127 59/110/128 62/111/129 
f 60/112/130 61/113/131 63/114/132 
f 58/116/133 62/117/134 63/118/135 61/115/136 
f 60/120/137 63/121/138 62/122/139 59/119/140 
f 75/124/141 74/125/142 73/126/143 72/123/144 
f 74/125/145 64/46/146 65/45/147 73/126/148 
f 79/128/149 78/129/150 77/130/151 76/127/152 
f 78/129/153 66/53/154 67/52/155 77/130/156 
f 72/132/157 80/133/158 82/134/159 75/131/160 
f 76/127/161 83/135/162 81/136/163 79/128/164 
f 87/138/165 86/139/166 85/140/167 84/137/168 
f 68/66/169 69/65/170 86/142/171 87/141/172 
f 91/144/173 90/145/174 89/146/175 88/143/176 
f 70/74/177 71/73/178 90/148/179 91/147/180 
f 82/134/181 80/133/182 84/137/183 85/140/184 
f 81/136/185 83/135/186 88/143/187 89/146/188 
f 93/150/189 96/151/190 95/152/191 92/149/192 
f 92/149/193 95/152/194 99/154/195 98/153/196 
f 101/155/197 100/156/198 98/153/199 99/154/200 
f 104/157/201 103/158/202 100/156/203 101/155/204 
f 51/160/205 109/161/206 110/162/207 50/159/208 
f 110/163/209 111/164/210 48/87/211 50/90/212 
f 45/166/213 112/167/214 113/168/215 46/165/216 
f 117/170/217 118/171/218 119/172/219 122/169/220 
f 121/174/221 122/169/222 119/172/223 120/173/224 
f 104/157/225 118/175/226 117/176/227 103/158/228 
f 124/178/229 125/179/230 126/180/231 123/177/232 
f 111/182/233 110/183/234 109/184/235 108/181/236 
f 125/186/237 124/187/238 4/188/239 3/185/240 
f 1/190/241 126/180/242 125/179/243 3/189/244 
s 1
f 24/191/245 23/192/246 18/193/247 17/194/248 
f 66/195/249 65/196/250 18/193/251 23/192/252 
f 17/194/253 25/197/254 26/198/255 24/191/256 
f 29/200/257 32/201/258 35/202/259 34/199/260 
f 32/201/261 68/203/262 71/204/263 35/202/264 
f 29/200/265 34/199/266 26/198/267 25/197/268 
f 39/206/269 38/207/270 41/208/271 42/205/272 
f 44/209/273 46/210/274 47/211/275 40/212/276 
f 116/214/277 39/206/278 42/205/279 115/213/280 
f 47/211/281 42/215/282 41/216/283 40/212/284 
f 79/217/285 72/218/286 73/219/287 78/220/288 
f 73/219/289 65/196/290 66/195/291 78/220/292 
f 72/218/293 79/217/294 81/221/295 80/222/296 
f 90/224/297 87/225/298 84/226/299 89/223/300 
f 71/204/301 68/203/302 87/225/303 90/224/304 
f 84/226/305 80/222/306 81/221/307 89/223/308 
f 96/228/309 93/229/310 94/230/311 97/227/312 
f 99/231/313 95/232/314 102/233/315 101/234/316 
f 97/227/317 94/230/318 107/236/319 106/235/320 
f 96/237/321 97/238/322 102/233/323 95/232/324 
f 102/233/325 105/239/326 104/240/327 101/234/328 
f 97/238/329 106/241/330 105/239/331 102/233/332 
f 113/242/333 114/243/334 47/211/335 46/210/336 
f 114/243/337 115/244/338 42/215/339 47/211/340 
f 106/241/341 120/245/342 119/246/343 105/239/344 
f 107/236/345 121/247/346 120/248/347 106/235/348 
f 105/239/349 119/246/350 118/249/351 104/240/352 
# 82 polygons - 8 triangles

