# 3ds Max Wavefront OBJ Exporter v0.97b - (c)2007 guruware
# File Created: 04.04.2017 23:33:36

#
# object default
#

v  -1.2642 3.8508 -0.3464
v  -1.2642 3.4307 -0.3464
v  -1.2642 3.4307 -0.1427
v  -1.2642 3.8508 -0.1427
v  1.1801 3.8508 -0.3464
v  1.1801 3.4307 -0.3464
v  1.1801 3.8508 -0.1427
v  1.1801 3.4307 -0.1427
v  -1.2642 2.3380 -0.3464
v  -1.2642 1.9179 -0.3464
v  -1.2642 1.9179 -0.1427
v  -1.2642 2.3380 -0.1427
v  1.1801 2.3380 -0.3464
v  1.1801 1.9179 -0.3464
v  1.1801 2.3380 -0.1427
v  1.1801 1.9179 -0.1427
v  1.9575 -0.2187 -0.5685
v  1.4096 -0.2187 -0.5685
v  1.4096 2.1377 -0.5685
v  1.9575 2.1377 -0.5685
v  1.9575 -0.2187 0.5900
v  1.4096 -0.2187 0.5900
v  2.5418 -0.2187 -0.5685
v  1.8895 -0.2187 -0.5685
v  1.8895 2.5237 -0.5685
v  2.5418 2.5237 -0.5685
v  2.5418 -0.2187 0.8698
v  1.8895 -0.2187 0.8698
v  -1.9799 2.5237 -0.5685
v  -1.9799 -0.2187 -0.5685
v  -2.6322 -0.2187 -0.5685
v  -2.6322 2.5237 -0.5685
v  -2.6322 -0.2187 0.8698
v  -1.9799 -0.2187 0.8698
v  -1.5000 2.1377 -0.5685
v  -1.5000 -0.2187 -0.5685
v  -2.0479 -0.2187 -0.5685
v  -2.0479 2.1377 -0.5685
v  -2.0479 -0.2187 0.5900
v  -1.5000 -0.2187 0.5900
v  -1.1963 5.0605 -0.3728
v  -1.1553 5.1067 -0.3728
v  -1.1553 5.1067 0.1680
v  -1.1963 5.0605 0.1680
v  -0.0497 5.0987 -0.3728
v  -0.0497 5.0987 0.1680
v  -1.4319 5.1051 0.1680
v  -1.2861 5.2876 0.1680
v  -1.2861 5.2876 -0.3728
v  -1.4319 5.1051 -0.3728
v  -0.0497 5.2956 0.1680
v  -0.0497 5.2956 -0.3728
v  -1.1946 2.8349 0.1680
v  -1.1946 2.8349 -0.3728
v  -1.4337 2.8349 -0.3728
v  -1.4337 2.8349 0.1680
v  -1.1553 0.1772 0.1680
v  -1.1553 0.1772 -0.3728
v  -1.1963 0.2233 -0.3728
v  -1.1963 0.2233 0.1680
v  -0.0497 0.1851 0.1680
v  -0.0497 0.1851 -0.3728
v  -1.2861 -0.0038 -0.3728
v  -1.2861 -0.0038 0.1680
v  -1.4319 0.1787 0.1680
v  -1.4319 0.1787 -0.3728
v  -0.0497 -0.0117 -0.3728
v  -0.0497 -0.0117 0.1680
v  1.0560 5.1067 0.1680
v  1.0560 5.1067 -0.3728
v  1.0970 5.0605 -0.3728
v  1.0970 5.0605 0.1680
v  1.1868 5.2876 -0.3728
v  1.1868 5.2876 0.1680
v  1.3326 5.1051 0.1680
v  1.3326 5.1051 -0.3728
v  -0.0497 5.2956 0.1680
v  -0.0497 5.2956 -0.3728
v  -0.0497 5.0987 -0.3728
v  -0.0497 5.0987 0.1680
v  1.0952 2.8349 -0.3728
v  1.0952 2.8349 0.1680
v  1.3344 2.8349 0.1680
v  1.3344 2.8349 -0.3728
v  1.0970 0.2233 -0.3728
v  1.0560 0.1772 -0.3728
v  1.0560 0.1772 0.1680
v  1.0970 0.2233 0.1680
v  1.3326 0.1787 0.1680
v  1.1868 -0.0038 0.1680
v  1.1868 -0.0038 -0.3728
v  1.3326 0.1787 -0.3728
v  -0.0497 0.1851 -0.3728
v  -0.0497 -0.0117 -0.3728
v  -0.0497 -0.0117 0.1680
v  -0.0497 0.1851 0.1680
v  -1.8623 5.1973 -0.5774
v  -1.8623 -0.2024 -0.5774
v  -1.8623 -0.2024 -0.3075
v  -1.8623 5.1973 -0.3075
v  1.7630 5.1973 -0.3075
v  1.7630 -0.2024 -0.3075
v  1.7630 -0.2024 -0.5774
v  1.7630 5.1973 -0.5774
v  -1.1085 5.8723 -0.5774
v  -1.5479 5.6740 -0.5774
v  -1.5479 5.6740 -0.3075
v  -1.1085 5.8723 -0.3075
v  1.4486 5.6740 -0.3075
v  1.4486 5.6740 -0.5774
v  1.0092 5.8723 -0.5774
v  1.0092 5.8723 -0.3075
v  1.0092 -0.2024 -0.5774
v  1.0092 5.1973 -0.5774
v  -1.1085 -0.2024 -0.3075
v  -1.1085 5.1973 -0.3075
v  1.0092 -0.2024 -0.3075
v  -1.1085 5.1973 -0.5774
v  1.0092 5.1973 -0.3075
v  -1.1085 -0.2024 -0.5774
# 120 vertices

vn -1.0000 0.0000 -0.0000
vn -1.0000 0.0000 -0.0000
vn -1.0000 0.0000 -0.0000
vn -1.0000 0.0000 -0.0000
vn 0.0000 0.0000 -1.0000
vn 0.0000 0.0000 -1.0000
vn 0.0000 0.0000 -1.0000
vn 0.0000 0.0000 -1.0000
vn 1.0000 0.0000 -0.0000
vn 1.0000 0.0000 -0.0000
vn 1.0000 0.0000 -0.0000
vn 1.0000 0.0000 -0.0000
vn 0.0000 0.0000 1.0000
vn 0.0000 0.0000 1.0000
vn 0.0000 0.0000 1.0000
vn 0.0000 0.0000 1.0000
vn 0.0000 -1.0000 -0.0000
vn 0.0000 -1.0000 -0.0000
vn 0.0000 -1.0000 -0.0000
vn 0.0000 -1.0000 -0.0000
vn 0.0000 1.0000 -0.0000
vn 0.0000 1.0000 -0.0000
vn 0.0000 1.0000 -0.0000
vn 0.0000 1.0000 -0.0000
vn -1.0000 0.0000 -0.0000
vn -1.0000 0.0000 -0.0000
vn -1.0000 0.0000 -0.0000
vn -1.0000 0.0000 -0.0000
vn 0.0000 0.0000 -1.0000
vn 0.0000 0.0000 -1.0000
vn 0.0000 0.0000 -1.0000
vn 0.0000 0.0000 -1.0000
vn 1.0000 0.0000 -0.0000
vn 1.0000 0.0000 -0.0000
vn 1.0000 0.0000 -0.0000
vn 1.0000 0.0000 -0.0000
vn 0.0000 0.0000 1.0000
vn 0.0000 0.0000 1.0000
vn 0.0000 0.0000 1.0000
vn 0.0000 0.0000 1.0000
vn 0.0000 -1.0000 -0.0000
vn 0.0000 -1.0000 -0.0000
vn 0.0000 -1.0000 -0.0000
vn 0.0000 -1.0000 -0.0000
vn 0.0000 1.0000 -0.0000
vn 0.0000 1.0000 -0.0000
vn 0.0000 1.0000 -0.0000
vn 0.0000 1.0000 -0.0000
vn 0.0000 0.0000 -1.0000
vn 0.0000 0.0000 -1.0000
vn 0.0000 0.0000 -1.0000
vn 0.0000 0.0000 -1.0000
vn 1.0000 0.0000 -0.0000
vn 1.0000 0.0000 -0.0000
vn 1.0000 0.0000 -0.0000
vn -1.0000 0.0000 -0.0000
vn -1.0000 0.0000 -0.0000
vn -1.0000 0.0000 -0.0000
vn 0.0000 0.4412 0.8974
vn 0.0000 0.4412 0.8974
vn 0.0000 0.4412 0.8974
vn 0.0000 0.4412 0.8974
vn 0.0000 -1.0000 -0.0000
vn 0.0000 -1.0000 -0.0000
vn 0.0000 -1.0000 -0.0000
vn 0.0000 -1.0000 -0.0000
vn 0.0000 0.0000 -1.0000
vn 0.0000 0.0000 -1.0000
vn 0.0000 0.0000 -1.0000
vn 0.0000 0.0000 -1.0000
vn 1.0000 0.0000 -0.0000
vn 1.0000 0.0000 -0.0000
vn 1.0000 0.0000 -0.0000
vn -1.0000 0.0000 -0.0000
vn -1.0000 0.0000 -0.0000
vn -1.0000 0.0000 -0.0000
vn 0.0000 0.4645 0.8856
vn 0.0000 0.4645 0.8856
vn 0.0000 0.4645 0.8856
vn 0.0000 0.4645 0.8856
vn 0.0000 -1.0000 -0.0000
vn 0.0000 -1.0000 -0.0000
vn 0.0000 -1.0000 -0.0000
vn 0.0000 -1.0000 -0.0000
vn 0.0000 0.0000 -1.0000
vn 0.0000 0.0000 -1.0000
vn 0.0000 0.0000 -1.0000
vn 0.0000 0.0000 -1.0000
vn -1.0000 0.0000 -0.0000
vn -1.0000 0.0000 -0.0000
vn -1.0000 0.0000 -0.0000
vn 1.0000 0.0000 -0.0000
vn 1.0000 0.0000 -0.0000
vn 1.0000 0.0000 -0.0000
vn 0.0000 0.4645 0.8856
vn 0.0000 0.4645 0.8856
vn 0.0000 0.4645 0.8856
vn 0.0000 0.4645 0.8856
vn 0.0000 -1.0000 -0.0000
vn 0.0000 -1.0000 -0.0000
vn 0.0000 -1.0000 -0.0000
vn 0.0000 -1.0000 -0.0000
vn 0.0000 0.0000 -1.0000
vn 0.0000 0.0000 -1.0000
vn 0.0000 0.0000 -1.0000
vn 0.0000 0.0000 -1.0000
vn -1.0000 0.0000 -0.0000
vn -1.0000 0.0000 -0.0000
vn -1.0000 0.0000 -0.0000
vn 1.0000 0.0000 -0.0000
vn 1.0000 0.0000 -0.0000
vn 1.0000 0.0000 -0.0000
vn 0.0000 0.4412 0.8974
vn 0.0000 0.4412 0.8974
vn 0.0000 0.4412 0.8974
vn 0.0000 0.4412 0.8974
vn 0.0000 -1.0000 -0.0000
vn 0.0000 -1.0000 -0.0000
vn 0.0000 -1.0000 -0.0000
vn 0.0000 -1.0000 -0.0000
vn 0.4067 -0.9136 -0.0000
vn 0.4067 -0.9136 -0.0000
vn 0.9350 -0.3546 -0.0000
vn 0.9350 -0.3546 -0.0000
vn -0.0000 -1.0000 -0.0000
vn -0.0000 -1.0000 -0.0000
vn 0.4067 -0.9136 -0.0000
vn 0.4067 -0.9136 -0.0000
vn -0.4364 0.8998 -0.0000
vn -0.4364 0.8998 -0.0000
vn -0.9436 0.3311 -0.0000
vn -0.9436 0.3311 -0.0000
vn -0.0000 1.0000 -0.0000
vn -0.0000 1.0000 -0.0000
vn -0.4364 0.8998 -0.0000
vn -0.4364 0.8998 -0.0000
vn 1.0000 0.0001 -0.0000
vn 1.0000 0.0001 -0.0000
vn 0.9350 -0.3546 -0.0000
vn 0.9350 -0.3546 -0.0000
vn -1.0000 0.0001 -0.0000
vn -1.0000 0.0001 -0.0000
vn -0.9436 0.3311 -0.0000
vn -0.9436 0.3311 -0.0000
vn 0.4063 0.9138 -0.0000
vn 0.9348 0.3552 -0.0000
vn 0.9348 0.3552 -0.0000
vn 0.4063 0.9138 -0.0000
vn -0.0000 1.0000 -0.0000
vn 0.4063 0.9138 -0.0000
vn 0.4063 0.9138 -0.0000
vn -0.0000 1.0000 -0.0000
vn -0.4364 -0.8998 -0.0000
vn -0.9436 -0.3310 -0.0000
vn -0.9436 -0.3310 -0.0000
vn -0.4364 -0.8998 -0.0000
vn -0.0000 -1.0000 -0.0000
vn -0.4364 -0.8998 -0.0000
vn -0.4364 -0.8998 -0.0000
vn -0.0000 -1.0000 -0.0000
vn 1.0000 0.0001 -0.0000
vn 0.9348 0.3552 -0.0000
vn 0.9348 0.3552 -0.0000
vn 1.0000 0.0001 -0.0000
vn -1.0000 0.0001 -0.0000
vn -0.9436 -0.3310 -0.0000
vn -0.9436 -0.3310 -0.0000
vn -1.0000 0.0001 -0.0000
vn -0.4067 -0.9136 -0.0000
vn -0.9350 -0.3546 -0.0000
vn -0.9350 -0.3546 -0.0000
vn -0.4067 -0.9136 -0.0000
vn -0.0000 -1.0000 -0.0000
vn -0.4067 -0.9136 -0.0000
vn -0.4067 -0.9136 -0.0000
vn -0.0000 -1.0000 -0.0000
vn 0.4364 0.8998 -0.0000
vn 0.9436 0.3311 -0.0000
vn 0.9436 0.3311 -0.0000
vn 0.4364 0.8998 -0.0000
vn -1.0000 0.0000 -0.0000
vn -1.0000 0.0000 -0.0000
vn -1.0000 0.0000 -0.0000
vn -1.0000 0.0000 -0.0000
vn -0.0000 1.0000 -0.0000
vn 0.4364 0.8998 -0.0000
vn 0.4364 0.8998 -0.0000
vn -0.0000 1.0000 -0.0000
vn -1.0000 0.0001 -0.0000
vn -0.9350 -0.3546 -0.0000
vn -0.9350 -0.3546 -0.0000
vn -1.0000 0.0001 -0.0000
vn 1.0000 0.0001 -0.0000
vn 0.9436 0.3311 -0.0000
vn 0.9436 0.3311 -0.0000
vn 1.0000 0.0001 -0.0000
vn -0.4063 0.9138 -0.0000
vn -0.4063 0.9138 -0.0000
vn -0.9348 0.3552 -0.0000
vn -0.9348 0.3552 -0.0000
vn -0.0000 1.0000 -0.0000
vn -0.0000 1.0000 -0.0000
vn -0.4063 0.9138 -0.0000
vn -0.4063 0.9138 -0.0000
vn 0.4364 -0.8998 -0.0000
vn 0.4364 -0.8998 -0.0000
vn 0.9436 -0.3310 -0.0000
vn 0.9436 -0.3310 -0.0000
vn -1.0000 0.0000 -0.0000
vn -1.0000 0.0000 -0.0000
vn -1.0000 0.0000 -0.0000
vn -1.0000 0.0000 -0.0000
vn -0.0000 -1.0000 -0.0000
vn -0.0000 -1.0000 -0.0000
vn 0.4364 -0.8998 -0.0000
vn 0.4364 -0.8998 -0.0000
vn -1.0000 0.0001 -0.0000
vn -1.0000 0.0001 -0.0000
vn -0.9348 0.3552 -0.0000
vn -0.9348 0.3552 -0.0000
vn 1.0000 0.0001 -0.0000
vn 1.0000 0.0001 -0.0000
vn 0.9436 -0.3310 -0.0000
vn 0.9436 -0.3310 -0.0000
vn -1.0000 0.0000 -0.0000
vn -1.0000 0.0000 -0.0000
vn -0.9578 0.2874 -0.0000
vn -0.9578 0.2874 -0.0000
vn 1.0000 0.0000 -0.0000
vn 1.0000 0.0000 -0.0000
vn 0.9578 0.2874 -0.0000
vn 0.9578 0.2874 -0.0000
vn -0.6487 0.7611 -0.0000
vn -0.6487 0.7611 -0.0000
vn -0.2104 0.9776 -0.0000
vn -0.2104 0.9776 -0.0000
vn 0.9578 0.2874 -0.0000
vn 0.9578 0.2874 -0.0000
vn 0.6487 0.7611 -0.0000
vn 0.6487 0.7611 -0.0000
vn -0.9578 0.2874 -0.0000
vn -0.9578 0.2874 -0.0000
vn -0.6487 0.7611 -0.0000
vn -0.6487 0.7611 -0.0000
vn 0.2104 0.9776 -0.0000
vn 0.2104 0.9776 -0.0000
vn 0.6487 0.7611 -0.0000
vn 0.6487 0.7611 -0.0000
vn -0.2104 0.9776 -0.0000
vn -0.2104 0.9776 -0.0000
vn 0.2104 0.9776 -0.0000
vn 0.2104 0.9776 -0.0000
vn -0.0000 -0.0000 1.0000
vn 0.0000 0.0000 1.0000
vn 0.0000 0.0000 1.0000
vn -0.0000 -0.0000 1.0000
vn 0.0000 0.0000 -1.0000
vn 0.0000 0.0000 -1.0000
vn 0.0000 0.0000 -1.0000
vn 0.0000 0.0000 -1.0000
vn 0.0000 0.0000 1.0000
vn 0.0000 0.0000 1.0000
vn 0.0000 0.0000 1.0000
vn 0.0000 0.0000 1.0000
vn 0.0000 0.0000 -1.0000
vn 0.0000 0.0000 -1.0000
vn 0.0000 0.0000 -1.0000
vn 0.0000 0.0000 -1.0000
vn -0.0000 -0.0000 1.0000
vn -0.0000 -0.0000 1.0000
vn -0.0000 -0.0000 1.0000
vn 0.0000 -0.0000 1.0000
vn 0.0000 0.0000 -1.0000
vn 0.0000 0.0000 -1.0000
vn 0.0000 0.0000 -1.0000
vn 0.0000 0.0000 -1.0000
vn 0.0000 0.0000 1.0000
vn 0.0000 0.0000 1.0000
vn 0.0000 0.0000 1.0000
vn 0.0000 0.0000 1.0000
vn 0.0000 0.0000 -1.0000
vn 0.0000 0.0000 -1.0000
vn 0.0000 0.0000 -1.0000
vn 0.0000 0.0000 -1.0000
vn 0.0000 0.0000 1.0000
vn 0.0000 0.0000 1.0000
vn 0.0000 0.0000 1.0000
vn 0.0000 0.0000 1.0000
vn 0.0000 0.0000 -1.0000
vn 0.0000 0.0000 -1.0000
vn 0.0000 0.0000 -1.0000
vn 0.0000 0.0000 -1.0000
vn 0.0000 0.0000 1.0000
vn 0.0000 -0.0000 1.0000
vn -0.0000 -0.0000 1.0000
vn 0.0000 0.0000 1.0000
vn 0.0000 0.0000 -1.0000
vn 0.0000 0.0000 -1.0000
vn 0.0000 0.0000 -1.0000
vn 0.0000 0.0000 -1.0000
vn 0.0000 0.0000 1.0000
vn 0.0000 0.0000 1.0000
vn 0.0000 -0.0000 1.0000
vn 0.0000 -0.0000 1.0000
vn -0.0000 0.0000 -1.0000
vn 0.0000 0.0000 -1.0000
vn 0.0000 0.0000 -1.0000
vn -0.0000 0.0000 -1.0000
vn 0.0000 0.0000 1.0000
vn 0.0000 0.0000 1.0000
vn 0.0000 0.0000 1.0000
vn 0.0000 0.0000 1.0000
vn 0.0000 0.0000 -1.0000
vn 0.0000 0.0000 -1.0000
vn 0.0000 0.0000 -1.0000
vn 0.0000 0.0000 -1.0000
vn 0.0000 -0.0000 1.0000
vn 0.0000 -0.0000 1.0000
vn 0.0000 -0.0000 1.0000
vn 0.0000 -0.0000 1.0000
vn -0.0000 0.0000 -1.0000
vn 0.0000 0.0000 -1.0000
vn -0.0000 0.0000 -1.0000
vn -0.0000 0.0000 -1.0000
vn 0.0000 0.0000 1.0000
vn 0.0000 0.0000 1.0000
vn 0.0000 0.0000 1.0000
vn 0.0000 0.0000 1.0000
vn 0.0000 0.0000 -1.0000
vn 0.0000 0.0000 -1.0000
vn 0.0000 0.0000 -1.0000
vn 0.0000 0.0000 -1.0000
vn 0.0000 0.0000 1.0000
vn 0.0000 0.0000 1.0000
vn 0.0000 0.0000 1.0000
vn 0.0000 0.0000 1.0000
vn 0.0000 0.0000 -1.0000
vn 0.0000 0.0000 -1.0000
vn 0.0000 0.0000 -1.0000
vn 0.0000 0.0000 -1.0000
vn 0.0000 0.0000 1.0000
vn 0.0000 0.0000 1.0000
vn 0.0000 -0.0000 1.0000
vn 0.0000 -0.0000 1.0000
vn 0.0000 0.0000 -1.0000
vn 0.0000 0.0000 -1.0000
vn -0.0000 0.0000 -1.0000
vn 0.0000 0.0000 -1.0000
vn 0.0000 0.0000 -1.0000
vn 0.0000 0.0000 -1.0000
vn 0.0000 0.0000 -1.0000
vn 0.0000 0.0000 -1.0000
vn 0.0000 -0.0000 1.0000
vn 0.0000 -0.0000 1.0000
vn 0.0000 -0.0000 1.0000
vn 0.0000 -0.0000 1.0000
vn 0.0000 -1.0000 -0.0000
vn 0.0000 -1.0000 -0.0000
vn 0.0000 -1.0000 -0.0000
vn 0.0000 -1.0000 -0.0000
vn 0.0000 0.0000 1.0000
vn 0.0000 -0.0000 1.0000
vn 0.0000 -0.0000 1.0000
vn 0.0000 0.0000 1.0000
vn 0.0000 0.0000 -1.0000
vn 0.0000 0.0000 -1.0000
vn 0.0000 0.0000 -1.0000
vn 0.0000 0.0000 -1.0000
vn 0.0000 0.0000 -1.0000
vn 0.0000 0.0000 -1.0000
vn 0.0000 0.0000 -1.0000
vn 0.0000 0.0000 -1.0000
vn 0.0000 0.0000 -1.0000
vn 0.0000 0.0000 -1.0000
vn 0.0000 0.0000 -1.0000
vn 0.0000 0.0000 -1.0000
vn 0.0000 0.0000 1.0000
vn 0.0000 0.0000 1.0000
vn 0.0000 -0.0000 1.0000
vn 0.0000 -0.0000 1.0000
vn 0.0000 -0.0000 1.0000
vn 0.0000 -0.0000 1.0000
vn 0.0000 0.0000 1.0000
vn 0.0000 0.0000 1.0000
vn 0.0000 -1.0000 -0.0000
vn 0.0000 -1.0000 -0.0000
vn 0.0000 -1.0000 -0.0000
vn 0.0000 -1.0000 -0.0000
vn 0.0000 -1.0000 -0.0000
vn 0.0000 -1.0000 -0.0000
vn 0.0000 -1.0000 -0.0000
vn 0.0000 -1.0000 -0.0000
vn 0.0000 -0.0000 1.0000
vn 0.0000 -0.0000 1.0000
vn 0.0000 -0.0000 1.0000
vn 0.0000 -0.0000 1.0000
vn 0.0000 -0.0000 1.0000
vn 0.0000 -0.0000 1.0000
vn 0.0000 -0.0000 1.0000
vn 0.0000 -0.0000 1.0000
vn 0.0000 0.0000 -1.0000
vn 0.0000 0.0000 -1.0000
vn 0.0000 0.0000 -1.0000
vn 0.0000 0.0000 -1.0000
vn 0.0000 0.0000 -1.0000
vn 0.0000 0.0000 -1.0000
vn 0.0000 0.0000 -1.0000
vn 0.0000 0.0000 -1.0000
# 408 vertex normals

vt 0.3025 0.8360 0.0000
vt 0.3025 0.8598 0.0000
vt 0.2873 0.8598 0.0000
vt 0.2873 0.8360 0.0000
vt 0.9628 0.2708 0.0000
vt 0.9941 0.2708 0.0000
vt 0.9941 0.4517 0.0000
vt 0.9628 0.4517 0.0000
vt 0.8906 0.3484 0.0000
vt 0.8906 0.3246 0.0000
vt 0.9058 0.3246 0.0000
vt 0.9058 0.3484 0.0000
vt 0.0897 0.9941 0.0000
vt 0.0586 0.9941 0.0000
vt 0.0586 0.8131 0.0000
vt 0.0897 0.8131 0.0000
vt 0.9058 0.2080 0.0000
vt 0.8906 0.2080 0.0000
vt 0.2733 0.4676 0.0000
vt 0.2733 0.6417 0.0000
vt 0.2582 0.6417 0.0000
vt 0.2582 0.4676 0.0000
vt 0.2212 0.8352 0.0000
vt 0.2212 0.8590 0.0000
vt 0.2061 0.8590 0.0000
vt 0.2061 0.8352 0.0000
vt 0.5562 0.6473 0.0000
vt 0.5250 0.6473 0.0000
vt 0.5250 0.4663 0.0000
vt 0.5562 0.4663 0.0000
vt 0.6735 0.9548 0.0000
vt 0.6735 0.9311 0.0000
vt 0.6886 0.9311 0.0000
vt 0.6886 0.9548 0.0000
vt 0.9940 0.6446 0.0000
vt 0.9628 0.6446 0.0000
vt 0.9628 0.4636 0.0000
vt 0.9940 0.4636 0.0000
vt 0.6886 0.8145 0.0000
vt 0.6735 0.8145 0.0000
vt 0.2582 0.8276 0.0000
vt 0.2582 0.6535 0.0000
vt 0.2733 0.6535 0.0000
vt 0.2733 0.8276 0.0000
vt 0.6095 0.9889 0.0000
vt 0.5687 0.9889 0.0000
vt 0.5687 0.8145 0.0000
vt 0.6095 0.8145 0.0000
vt 0.3735 0.8242 0.0000
vt 0.2873 0.6907 0.0000
vt 0.3735 0.6907 0.0000
vt 0.4834 0.7109 0.0000
vt 0.5558 0.6646 0.0000
vt 0.5558 0.8232 0.0000
vt 0.9392 0.6639 0.0000
vt 0.9799 0.6639 0.0000
vt 0.9799 0.8444 0.0000
vt 0.9392 0.8444 0.0000
vt 0.2873 0.6646 0.0000
vt 0.3735 0.6646 0.0000
vt 0.9190 0.5766 0.0000
vt 0.8705 0.5766 0.0000
vt 0.8705 0.3735 0.0000
vt 0.9190 0.3735 0.0000
vt 0.4062 0.4663 0.0000
vt 0.5131 0.6216 0.0000
vt 0.4062 0.6216 0.0000
vt 0.0059 0.5278 0.0000
vt 0.0941 0.4676 0.0000
vt 0.0941 0.6559 0.0000
vt 0.1040 0.6678 0.0000
vt 0.1525 0.6678 0.0000
vt 0.1525 0.8784 0.0000
vt 0.1040 0.8784 0.0000
vt 0.5131 0.6527 0.0000
vt 0.4062 0.6527 0.0000
vt 0.9273 0.6639 0.0000
vt 0.9273 0.8670 0.0000
vt 0.8788 0.8670 0.0000
vt 0.8788 0.6639 0.0000
vt 0.1942 0.6559 0.0000
vt 0.1060 0.5278 0.0000
vt 0.1942 0.4676 0.0000
vt 0.3943 0.4974 0.0000
vt 0.3943 0.6527 0.0000
vt 0.2873 0.4974 0.0000
vt 0.8184 0.8745 0.0000
vt 0.8184 0.6639 0.0000
vt 0.8669 0.6639 0.0000
vt 0.8669 0.8745 0.0000
vt 0.2873 0.4663 0.0000
vt 0.3943 0.4663 0.0000
vt 0.0467 0.8131 0.0000
vt 0.0467 0.9876 0.0000
vt 0.0059 0.9876 0.0000
vt 0.0059 0.8131 0.0000
vt 0.0921 0.6678 0.0000
vt 0.0921 0.8012 0.0000
vt 0.0059 0.8012 0.0000
vt 0.4715 0.6907 0.0000
vt 0.4715 0.8242 0.0000
vt 0.3854 0.6907 0.0000
vt 0.9834 0.0059 0.0000
vt 0.9834 0.1865 0.0000
vt 0.9427 0.1865 0.0000
vt 0.9427 0.0059 0.0000
vt 0.3854 0.6646 0.0000
vt 0.4715 0.6646 0.0000
vt 0.8385 0.0105 0.0000
vt 0.8385 0.0059 0.0000
vt 0.8787 0.0059 0.0000
vt 0.8787 0.0105 0.0000
vt 0.8787 0.2963 0.0000
vt 0.8787 0.3495 0.0000
vt 0.8385 0.3495 0.0000
vt 0.8385 0.2963 0.0000
vt 0.8906 0.1961 0.0000
vt 0.8906 0.1820 0.0000
vt 0.9308 0.1820 0.0000
vt 0.9308 0.1961 0.0000
vt 0.8906 0.0938 0.0000
vt 0.9308 0.0938 0.0000
vt 0.8787 0.1365 0.0000
vt 0.8385 0.1365 0.0000
vt 0.8266 0.0059 0.0000
vt 0.8266 0.1344 0.0000
vt 0.7864 0.1344 0.0000
vt 0.7864 0.0059 0.0000
vt 0.8705 0.6285 0.0000
vt 0.8705 0.5884 0.0000
vt 0.8751 0.5884 0.0000
vt 0.8751 0.6285 0.0000
vt 0.6214 0.8969 0.0000
vt 0.6616 0.8969 0.0000
vt 0.6616 0.9758 0.0000
vt 0.6214 0.9758 0.0000
vt 0.8266 0.3022 0.0000
vt 0.7864 0.3022 0.0000
vt 0.7864 0.2849 0.0000
vt 0.8266 0.2849 0.0000
vt 0.8266 0.3617 0.0000
vt 0.7864 0.3617 0.0000
vt 0.8787 0.2845 0.0000
vt 0.8385 0.2845 0.0000
vt 0.8184 0.3735 0.0000
vt 0.8586 0.3735 0.0000
vt 0.8586 0.3781 0.0000
vt 0.8184 0.3781 0.0000
vt 0.7005 0.8145 0.0000
vt 0.7407 0.8145 0.0000
vt 0.7407 0.8677 0.0000
vt 0.7005 0.8677 0.0000
vt 0.5006 0.8351 0.0000
vt 0.5006 0.8751 0.0000
vt 0.4834 0.8751 0.0000
vt 0.4834 0.8351 0.0000
vt 0.5125 0.8751 0.0000
vt 0.5125 0.8351 0.0000
vt 0.5237 0.8351 0.0000
vt 0.5237 0.8751 0.0000
vt 0.8906 0.0059 0.0000
vt 0.9308 0.0059 0.0000
vt 0.8586 0.5040 0.0000
vt 0.8184 0.5040 0.0000
vt 0.2463 0.5961 0.0000
vt 0.2061 0.5961 0.0000
vt 0.2061 0.4676 0.0000
vt 0.2463 0.4676 0.0000
vt 0.6616 0.8145 0.0000
vt 0.6616 0.8183 0.0000
vt 0.6214 0.8183 0.0000
vt 0.6214 0.8145 0.0000
vt 0.2463 0.7466 0.0000
vt 0.2463 0.7639 0.0000
vt 0.2061 0.7639 0.0000
vt 0.2061 0.7466 0.0000
vt 0.5468 0.8751 0.0000
vt 0.5356 0.8751 0.0000
vt 0.5356 0.8351 0.0000
vt 0.5468 0.8351 0.0000
vt 0.2463 0.8233 0.0000
vt 0.2061 0.8233 0.0000
vt 0.8184 0.6520 0.0000
vt 0.8586 0.6520 0.0000
vt 0.9509 0.2708 0.0000
vt 0.9509 0.5766 0.0000
vt 0.9309 0.5766 0.0000
vt 0.9309 0.2708 0.0000
vt 0.8065 0.3735 0.0000
vt 0.8065 0.6793 0.0000
vt 0.7864 0.6793 0.0000
vt 0.7864 0.3735 0.0000
vt 0.1644 0.7351 0.0000
vt 0.1644 0.6998 0.0000
vt 0.1844 0.6998 0.0000
vt 0.1844 0.7351 0.0000
vt 0.7727 0.8478 0.0000
vt 0.7727 0.8893 0.0000
vt 0.7526 0.8893 0.0000
vt 0.7526 0.8478 0.0000
vt 0.1644 0.6678 0.0000
vt 0.1844 0.6678 0.0000
vt 0.7526 0.8145 0.0000
vt 0.7727 0.8145 0.0000
vt 0.1644 0.8860 0.0000
vt 0.1844 0.8860 0.0000
vt 0.7568 0.4281 0.0000
vt 0.7537 0.4247 0.0000
vt 0.7634 0.4113 0.0000
vt 0.7743 0.4248 0.0000
vt 0.5863 0.0234 0.0000
vt 0.5688 0.0201 0.0000
vt 0.5796 0.0066 0.0000
vt 0.5893 0.0200 0.0000
vt 0.6715 0.4253 0.0000
vt 0.6715 0.4108 0.0000
vt 0.6715 0.0059 0.0000
vt 0.6715 0.0205 0.0000
vt 0.7745 0.5924 0.0000
vt 0.7568 0.5924 0.0000
vt 0.5865 0.1882 0.0000
vt 0.5687 0.1882 0.0000
vt 0.7637 0.8020 0.0000
vt 0.7540 0.7886 0.0000
vt 0.7570 0.7852 0.0000
vt 0.7745 0.7885 0.0000
vt 0.5865 0.3816 0.0000
vt 0.5896 0.3850 0.0000
vt 0.5799 0.3984 0.0000
vt 0.5690 0.3849 0.0000
vt 0.6718 0.8026 0.0000
vt 0.6718 0.7881 0.0000
vt 0.6718 0.3843 0.0000
vt 0.6718 0.3989 0.0000
vt 0.5796 0.4114 0.0000
vt 0.5893 0.4248 0.0000
vt 0.5863 0.4282 0.0000
vt 0.5688 0.4249 0.0000
vt 0.7568 0.0233 0.0000
vt 0.7537 0.0199 0.0000
vt 0.7634 0.0065 0.0000
vt 0.7743 0.0200 0.0000
vt 0.5865 0.5925 0.0000
vt 0.5687 0.5925 0.0000
vt 0.7745 0.1881 0.0000
vt 0.7567 0.1881 0.0000
vt 0.5865 0.7853 0.0000
vt 0.5896 0.7887 0.0000
vt 0.5799 0.8021 0.0000
vt 0.5690 0.7886 0.0000
vt 0.7570 0.3815 0.0000
vt 0.7745 0.3848 0.0000
vt 0.7637 0.3983 0.0000
vt 0.7540 0.3849 0.0000
vt 0.0059 0.4058 0.0000
vt 0.0059 0.0059 0.0000
vt 0.0620 0.0059 0.0000
vt 0.0620 0.4058 0.0000
vt 0.5569 0.0558 0.0000
vt 0.5569 0.4544 0.0000
vt 0.5008 0.4544 0.0000
vt 0.5008 0.0558 0.0000
vt 0.7864 0.7153 0.0000
vt 0.8065 0.7153 0.0000
vt 0.5335 0.0206 0.0000
vt 0.5008 0.0059 0.0000
vt 0.0293 0.4411 0.0000
vt 0.0620 0.4557 0.0000
vt 0.2521 0.4411 0.0000
vt 0.2194 0.4557 0.0000
vt 0.2194 0.4058 0.0000
vt 0.2755 0.4058 0.0000
vt 0.3107 0.0206 0.0000
vt 0.3434 0.0059 0.0000
vt 0.3434 0.0558 0.0000
vt 0.2873 0.0558 0.0000
vt 0.7864 0.8523 0.0000
vt 0.7864 0.8163 0.0000
vt 0.8065 0.8163 0.0000
vt 0.8065 0.8523 0.0000
vt 0.3434 0.4544 0.0000
vt 0.2873 0.4544 0.0000
vt 0.2194 0.0059 0.0000
vt 0.2755 0.0059 0.0000
# 284 texture coords

g default
s 1
f 2/2/1 3/3/2 4/4/3 1/1/4 
s 2
f 1/6/5 5/7/6 6/8/7 2/5/8 
s 1
f 8/10/9 6/11/10 5/12/11 7/9/12 
s 2
f 3/14/13 8/15/14 7/16/15 4/13/16 
s 4
f 6/11/17 8/10/18 3/18/19 2/17/20 
f 1/20/21 4/21/22 7/22/23 5/19/24 
s 1
f 10/24/25 11/25/26 12/26/27 9/23/28 
s 2
f 14/28/29 10/29/30 9/30/31 13/27/32 
s 1
f 16/32/33 14/33/34 13/34/35 15/31/36 
s 2
f 11/36/37 16/37/38 15/38/39 12/35/40 
s 4
f 14/33/41 16/32/42 11/40/43 10/39/44 
f 9/42/45 12/43/46 15/44/47 13/41/48 
s 1
f 18/46/49 19/47/50 20/48/51 17/45/52 
s 2
f 20/49/53 21/50/54 17/51/55 
f 18/52/56 22/53/57 19/54/58 
s 4
f 21/56/59 20/57/60 19/58/61 22/55/62 
s 8
f 22/59/63 18/60/64 17/51/65 21/50/66 
s 1
f 24/62/67 25/63/68 26/64/69 23/61/70 
s 2
f 26/65/71 27/66/72 23/67/73 
f 24/68/74 28/69/75 25/70/76 
s 4
f 27/72/77 26/73/78 25/74/79 28/71/80 
s 8
f 28/75/81 24/76/82 23/67/83 27/66/84 
s 1
f 30/78/85 31/79/86 32/80/87 29/77/88 
s 2
f 32/81/89 31/82/90 33/83/91 
f 30/84/92 29/85/93 34/86/94 
s 4
f 33/88/95 34/89/96 29/90/97 32/87/98 
s 8
f 34/86/99 33/91/100 31/92/101 30/84/102 
s 1
f 36/94/103 37/95/104 38/96/105 35/93/106 
s 2
f 38/97/107 37/98/108 39/99/109 
f 36/100/110 35/101/111 40/102/112 
s 4
f 39/104/113 40/105/114 35/106/115 38/103/116 
s 8
f 40/102/117 39/107/118 37/108/119 36/100/120 
s 1
f 42/110/121 43/111/122 44/112/123 41/109/124 
f 45/114/125 46/115/126 43/116/127 42/113/128 
f 48/118/129 49/119/130 50/120/131 47/117/132 
f 51/121/133 52/122/134 49/119/135 48/118/136 
f 53/123/137 54/124/138 41/109/139 44/112/140 
f 55/126/141 56/127/142 47/128/143 50/125/144 
f 58/130/145 59/131/146 60/132/147 57/129/148 
f 62/134/149 58/135/150 57/136/151 61/133/152 
f 64/138/153 65/139/154 66/140/155 63/137/156 
f 68/142/157 64/138/158 63/137/159 67/141/160 
f 53/123/161 60/143/162 59/144/163 54/124/164 
f 55/126/165 66/140/166 65/139/167 56/127/168 
f 70/146/169 71/147/170 72/148/171 69/145/172 
f 45/150/173 70/151/174 69/152/175 46/149/176 
f 74/154/177 75/155/178 76/156/179 73/153/180 
f 78/158/181 79/159/182 80/160/183 77/157/184 
f 51/121/185 74/161/186 73/162/187 52/122/188 
f 82/164/189 72/148/190 71/147/191 81/163/192 
f 84/166/193 76/167/194 75/168/195 83/165/196 
f 86/170/197 87/171/198 88/172/199 85/169/200 
f 62/134/201 61/133/202 87/171/203 86/170/204 
f 90/174/205 91/175/206 92/176/207 89/173/208 
f 94/178/209 95/179/210 96/180/211 93/177/212 
f 68/181/213 67/182/214 91/175/215 90/174/216 
f 82/164/217 81/163/218 85/184/219 88/183/220 
f 84/166/221 83/165/222 89/173/223 92/176/224 
f 98/186/225 99/187/226 100/188/227 97/185/228 
f 102/190/229 103/191/230 104/192/231 101/189/232 
f 106/194/233 107/195/234 108/196/235 105/193/236 
f 101/198/237 104/199/238 110/200/239 109/197/240 
f 97/201/241 100/202/242 107/195/243 106/194/244 
f 111/203/245 112/204/246 109/197/247 110/200/248 
f 105/193/249 108/196/250 112/206/251 111/205/252 
s 2
f 44/207/253 43/208/254 48/209/255 47/210/256 
f 41/211/257 50/212/258 49/213/259 42/214/260 
f 43/208/261 46/215/262 51/216/263 48/209/264 
f 42/214/265 49/213/266 52/217/267 45/218/268 
f 44/207/269 47/210/270 56/219/271 53/220/272 
f 41/211/273 54/221/274 55/222/275 50/212/276 
f 64/223/277 57/224/278 60/225/279 65/226/280 
f 59/227/281 58/228/282 63/229/283 66/230/284 
f 68/231/285 61/232/286 57/224/287 64/223/288 
f 58/228/289 62/233/290 67/234/291 63/229/292 
f 60/225/293 53/220/294 56/219/295 65/226/296 
f 55/222/297 54/221/298 59/227/299 66/230/300 
f 74/235/301 69/236/302 72/237/303 75/238/304 
f 71/239/305 70/240/306 73/241/307 76/242/308 
f 51/216/309 46/215/310 69/236/311 74/235/312 
f 70/240/313 45/218/314 52/217/315 73/241/316 
f 72/237/317 82/243/318 83/244/319 75/238/320 
f 84/245/321 81/246/322 71/239/323 76/242/324 
f 88/247/325 87/248/326 90/249/327 89/250/328 
f 85/251/329 92/252/330 91/253/331 86/254/332 
f 87/248/333 61/232/334 68/231/335 90/249/336 
f 86/254/337 91/253/338 67/234/339 62/233/340 
f 88/247/341 89/250/342 83/244/343 82/243/344 
f 85/251/345 81/246/346 84/245/347 92/252/348 
f 103/256/349 113/257/350 114/258/351 104/255/352 
f 99/260/353 115/261/354 116/262/355 100/259/356 
s 4
f 103/191/357 102/190/358 117/264/359 113/263/360 
s 2
f 107/265/361 100/259/362 116/262/363 108/266/364 
f 110/267/365 104/255/366 114/258/367 111/268/368 
f 106/269/369 105/270/370 118/271/371 97/272/372 
f 114/258/373 118/271/374 105/270/375 111/268/376 
f 109/273/377 112/274/378 119/275/379 101/276/380 
f 116/262/381 119/275/382 112/274/383 108/266/384 
s 4
f 120/278/385 115/279/386 99/280/387 98/277/388 
f 113/263/389 117/264/390 115/279/391 120/278/392 
s 2
f 117/281/393 102/282/394 101/276/395 119/275/396 
f 115/261/397 117/281/398 119/275/399 116/262/400 
f 120/283/401 98/284/402 97/272/403 118/271/404 
f 113/257/405 120/283/406 118/271/407 114/258/408 
# 96 polygons - 8 triangles

