# Blender MTL File: 'B_Woodcutter_01.blend'
# Material Count: 10

newmtl Bark_01_Mat
Ns 96.078431
Ka 0.000000 0.000000 0.000000
Kd 0.800000 0.800000 0.800000
Ks 0.000000 0.000000 0.000000
Ni 1.000000
d 1.000000
illum 1
map_Kd C:\Users\matthieu\Desktop\textures\T_Nature_Bark_01_Diff.png
map_Bump C:\\Users\\matthieu\\Desktop\\textures\\T_Nature_Bark_01_Norm.png

newmtl Bark_02_Mat
Ns 96.078431
Ka 0.000000 0.000000 0.000000
Kd 0.090608 0.081387 0.066911
Ks 0.000000 0.000000 0.000000
Ni 1.000000
d 1.000000
illum 1
map_Kd C:\Users\matthieu\Desktop\textures\Foliage_Bark_01_Diffuse_01.png
map_Bump C:\\Users\\matthieu\\Desktop\\textures\\Foliage_Bark_01_Normal_01.png
map_Ks C:\\Users\\matthieu\\Desktop\\textures\\Foliage_Bark_01_Diffuse_01.png

newmtl Bricks_01_Mat
Ns 7.843137
Ka 0.000000 0.000000 0.000000
Kd 0.173657 0.165613 0.143686
Ks 0.000000 0.000000 0.000000
Ni 1.000000
d 1.000000
illum 1
map_Kd C:\Users\matthieu\Desktop\textures\T_Buildings_Bricks_01_Diffuse_01.png
map_Bump C:\\Users\\matthieu\\Desktop\\textures\\T_Buildings_Bricks_01_Normal_01.png

newmtl Bushes01
Ns 96.078431
Ka 0.000000 0.000000 0.000000
Kd 0.050534 0.067740 0.022949
Ks 0.000000 0.000000 0.000000
Ni 1.000000
d 0.000000
illum 1
map_Kd C:\Users\matthieu\Desktop\textures\Foliage_Bushes01_DiffuseMaska.tga
map_d C:\\Users\\matthieu\\Desktop\\textures\\Foliage_Bushes01_DiffuseMaska.tga

newmtl Grass_01_Mat
Ns 96.078431
Ka 0.000000 0.000000 0.000000
Kd 0.800000 0.800000 0.800000
Ks 0.000000 0.000000 0.000000
Ni 1.000000
d 0.000000
illum 1
map_Kd C:\Users\matthieu\Desktop\textures\Foliage_Grass01_DiffuseMask.tga
map_d C:\\Users\\matthieu\\Desktop\\textures\\Foliage_Grass01_DiffuseMask.tga

newmtl Ground_01_Mat
Ns 96.078431
Ka 0.000000 0.000000 0.000000
Kd 0.800000 0.800000 0.800000
Ks 0.000000 0.000000 0.000000
Ni 1.000000
d 1.000000
illum 1
map_Kd C:\Users\matthieu\Desktop\textures\Ground_Mask_01a.png

newmtl Leaves_01_Mat
Ns 47.058824
Ka 0.000000 0.000000 0.000000
Kd 0.030905 0.077656 0.007168
Ks 0.000000 0.000000 0.000000
Ni 1.000000
d 0.000000
illum 1
map_Kd C:\Users\matthieu\Desktop\textures\Foliage_Leaves_01_DiffuseMask_01a.tga
map_d C:\\Users\\matthieu\\Desktop\\textures\\Foliage_Leaves_01_DiffuseMask_01a.tga

newmtl PlanksWood_01_Mat
Ns 96.078431
Ka 0.000000 0.000000 0.000000
Kd 0.108849 0.073360 0.061355
Ks 0.000000 0.000000 0.000000
Ni 1.000000
d 1.000000
illum 1
map_Kd C:\Users\matthieu\Desktop\textures\T_Buildings_WoodPlanks_01_Diffuse_012.png
map_Bump C:\\Users\\matthieu\\Desktop\\textures\\T_Buildings_WoodPlanks_01_Normal_01.png

newmtl Props_01_Mat
Ns 96.078431
Ka 0.000000 0.000000 0.000000
Kd 1.000000 1.000000 1.000000
Ks 0.000000 0.000000 0.000000
Ni 1.000000
d 0.000000
illum 1
map_Kd C:\Users\matthieu\Desktop\textures\T_Props_Tools_01_DiffuseMask_01.tga
map_Ks C:\\Users\\matthieu\\Desktop\\textures\\T_Props_Tools_01_DiffuseMask_01.tga
map_d C:\\Users\\matthieu\\Desktop\\textures\\T_Props_Tools_01_DiffuseMask_01.tga

newmtl RoofPlanks_01_Mat
Ns 96.078431
Ka 0.000000 0.000000 0.000000
Kd 0.086304 0.084201 0.079200
Ks 0.000000 0.000000 0.000000
Ni 1.000000
d 1.000000
illum 1
map_Kd C:\Users\matthieu\Desktop\textures\T_Buildings_WoodPlanks_02_Diffuse_01d.png
map_Bump C:\\Users\\matthieu\\Desktop\\textures\\T_Buildings_WoodPlanks_02_Normal_01.png
