# Blender v2.72 (sub 0) OBJ File: 'ordinateurs.blend'
# www.blender.org
mtllib ordinateurs_low.mtl
o Cube
v -1.145161 3.265155 -5.758630
v -1.145161 3.265155 -6.967931
v 3.550428 3.265155 -6.967931
v 3.550428 3.265155 -5.651800
v -1.145161 3.887727 -5.758630
v -1.145161 3.887727 -6.967931
v 3.550428 3.887727 -6.967931
v 3.550428 3.887727 -5.651800
v -1.151595 3.951650 -5.758623
v -1.151595 3.951650 -7.397368
v 3.556862 3.951650 -7.397368
v 3.556862 3.951650 -5.651793
v -1.151595 4.622483 -5.758548
v -1.151595 4.347964 -7.590837
v 3.556862 4.347964 -7.590837
v 3.556862 4.622483 -5.651718
v -1.145161 3.887727 -6.251861
v -1.145161 3.265155 -6.251861
v -1.151595 3.951650 -6.500783
v -1.151595 4.347964 -6.436164
v 3.556862 4.347964 -6.436164
v 5.619993 4.347965 -12.117673
v 5.803676 3.265155 -12.117620
v 6.296612 4.622483 -12.117556
v 4.467020 4.347965 -12.117873
v 6.296537 3.951650 -12.117556
v 4.660204 3.951650 -12.117840
v 6.296181 3.887728 -12.117535
v 5.088660 3.887728 -12.117744
v 6.296181 3.265155 -12.117535
v 5.088660 3.265155 -12.117744
v 5.088660 3.265155 -8.494589
v 6.296181 3.265155 -8.428997
v 5.088660 3.887728 -8.494589
v 6.296181 3.887728 -8.428997
v 4.660204 3.951650 -8.524306
v 6.296537 3.951650 -8.435421
v 4.467020 4.347965 -8.534801
v 6.296612 4.622483 -8.435417
v 5.803676 3.265155 -8.455750
v 5.619993 4.347965 -8.472171
v 5.013897 4.347964 -6.899817
v 5.609062 4.622483 -6.284890
v 4.139338 4.347964 -7.813560
v 5.109371 3.951650 -6.632758
v 4.329394 3.951650 -7.758568
v 5.103620 3.887728 -6.629874
v 4.516565 3.887728 -7.372014
v 4.991846 3.265155 -6.058526
v 4.516565 3.265155 -7.372014
v 1.538658 3.887727 -6.967931
v 1.538658 3.265155 -6.967931
v 1.538658 3.887727 -5.705215
v 1.538658 3.265155 -5.705215
v 1.538658 3.951650 -7.397368
v 1.538658 3.951650 -5.705207
v 1.538658 4.347964 -7.590837
v 1.538658 4.622483 -5.705133
v 1.538658 4.347964 -6.436164
v 1.346234 3.265155 -6.967931
v 1.346234 3.887727 -5.709045
v 1.345773 3.951650 -5.709037
v 1.345773 4.622483 -5.708963
v 1.345773 4.347964 -6.436164
v 1.346234 3.887727 -6.967931
v 1.346234 3.265155 -5.709045
v 1.345773 3.951650 -7.397368
v 1.345773 4.347964 -7.590837
v 5.088660 3.887728 -9.364441
v 6.296181 3.265155 -9.318899
v 5.088660 3.265155 -9.364441
v 6.296181 3.887728 -9.318899
v 4.660204 3.951650 -9.385075
v 4.467020 4.347965 -9.392360
v 6.296612 4.622483 -9.323357
v 6.296537 3.951650 -9.323359
v 5.619993 4.347965 -9.348876
v 5.803676 3.265155 -9.337475
v 3.785271 3.951650 -5.716732
v 3.785276 4.622483 -5.716659
v 3.703596 3.265155 -7.031993
v 3.679336 3.951650 -7.454632
v 3.778945 3.887727 -5.716281
v 3.703596 3.887727 -7.031993
v 3.665557 4.347964 -7.644832
v 3.778945 3.265155 -5.716281
v 3.747794 4.347964 -6.509670
v 5.072782 4.347964 -7.007628
v 5.193054 3.887728 -6.792410
v 4.154733 4.347964 -7.854932
v 4.352077 3.951650 -7.811073
v 4.555792 3.887728 -7.448986
v 5.198436 3.951650 -6.795537
v 5.698129 4.622483 -6.447674
v 4.555792 3.265155 -7.448986
v 5.081281 3.265155 -6.221062
v 3.464664 4.348847 -6.338104
v 3.464658 4.560041 -5.728448
v 1.253568 4.557870 -5.784866
v -1.059621 4.558490 -5.831038
v -1.059629 4.350398 -6.338688
v 1.253576 4.351018 -6.338931
v 5.743177 4.289284 -12.025572
v 6.249136 4.494561 -12.025484
v 5.633356 4.526699 -6.598258
v 6.147572 4.532980 -8.313278
v 6.249136 4.494561 -9.418717
v 5.005354 4.320248 -6.804871
v 5.402836 4.527818 -6.332626
v 3.875133 4.318778 -6.466503
v 5.651409 4.316733 -8.338805
v 1.630633 4.560627 -5.778419
v 1.630625 4.348261 -6.337892
v 5.743177 4.289284 -9.437799
v 3.903234 4.529894 -5.866137
v 5.192723 4.321586 -7.039659
v -1.060879 4.347964 -6.526881
v -1.060879 4.347964 -7.500121
v 1.629375 4.347964 -7.500121
v 3.466145 4.347964 -7.500121
v 3.466145 4.347964 -6.526881
v 4.264663 4.347964 -7.876923
v 1.255056 4.347964 -6.526881
v 4.523704 4.347965 -8.440871
v 5.491807 4.347965 -8.388284
v 4.114425 4.347964 -7.708390
v 3.830035 4.347964 -6.629939
v 4.846764 4.347964 -6.943241
v 1.629375 4.347964 -6.526881
v 1.255056 4.347964 -7.500121
v 3.761024 4.347964 -7.582533
v 5.035070 4.347964 -7.165883
v -0.935436 4.295403 -6.551435
v -0.935436 4.295403 -7.493875
v 1.669679 4.295403 -7.493875
v 3.448321 4.295403 -7.493875
v 3.448321 4.295403 -6.551435
v 4.221568 4.295403 -7.858752
v 1.307206 4.295403 -6.551435
v 4.472411 4.295404 -8.404854
v 5.409878 4.295404 -8.353930
v 4.076085 4.295403 -7.695553
v 3.800695 4.295403 -6.651231
v 4.785248 4.295403 -6.954618
v 1.669679 4.295403 -6.551435
v 1.307206 4.295403 -7.493875
v 3.733868 4.295403 -7.573679
v 4.967595 4.295403 -7.170214
v 4.581598 4.347965 -12.003275
v 5.505414 4.347965 -12.003114
v 4.581598 4.347965 -9.502699
v 5.505414 4.347965 -9.467857
v 4.602800 4.291365 -11.945484
v 5.484212 4.291365 -11.945330
v 4.602800 4.291365 -9.559687
v 5.484212 4.291365 -9.526444
vt 0.849800 0.703372
vt 0.861080 0.776718
vt 0.795625 0.786123
vt 0.784345 0.712777
vt 0.895360 0.284619
vt 0.894683 0.493346
vt 0.828536 0.493277
vt 0.829213 0.284550
vt 0.469152 0.683430
vt 0.535311 0.683624
vt 0.535311 0.968803
vt 0.469152 0.968609
vt 0.375419 0.586709
vt 0.378560 0.789062
vt 0.312384 0.788410
vt 0.309243 0.586057
vt 0.375177 0.571080
vt 0.372596 0.408527
vt 0.379383 0.408064
vt 0.381971 0.571148
vt 0.450688 0.408771
vt 0.453277 0.571855
vt 0.498797 0.595713
vt 0.541244 0.582037
vt 0.608955 0.627925
vt 0.596431 0.671238
vt 0.513437 0.259478
vt 0.563493 0.006096
vt 0.608955 0.013858
vt 0.558779 0.267848
vt 0.842031 0.652852
vt 0.848732 0.651939
vt 0.860422 0.727957
vt 0.273840 0.888871
vt 0.275306 0.831903
vt 0.280893 0.827248
vt 0.279474 0.882413
vt 0.381223 0.200470
vt 0.374425 0.201044
vt 0.378547 0.006748
vt 0.385362 0.006380
vt 0.909187 0.265206
vt 0.909683 0.006096
vt 0.952705 0.007033
vt 0.952208 0.266143
vt 0.919260 0.641797
vt 0.901072 0.715351
vt 0.776576 0.662256
vt 0.450776 0.181919
vt 0.456668 0.007076
vt 0.692687 0.450101
vt 0.699474 0.449515
vt 0.699474 0.626420
vt 0.692687 0.626724
vt 0.874545 0.819792
vt 0.061034 0.568191
vt 0.120021 0.558546
vt 0.160723 0.795503
vt 0.106594 0.804350
vt 0.919260 0.833622
vt 0.638441 0.020180
vt 0.736741 0.018234
vt 0.734366 0.024524
vt 0.640578 0.026381
vt 0.124232 0.142979
vt 0.069301 0.105550
vt 0.239938 0.023408
vt 0.252316 0.073665
vt 0.983800 0.501119
vt 0.983800 0.416121
vt 0.989584 0.416967
vt 0.989584 0.499275
vt 0.892860 0.920741
vt 0.851707 0.913818
vt 0.851625 0.845814
vt 0.892860 0.849249
vt 0.762067 0.015804
vt 0.815948 0.013833
vt 0.811146 0.284309
vt 0.757299 0.284309
vt 0.977693 0.926394
vt 0.931743 0.923902
vt 0.931743 0.641797
vt 0.977693 0.642170
vt 0.621439 0.452981
vt 0.621439 0.629605
vt 0.828786 0.509482
vt 0.894934 0.509551
vt 0.896264 0.595565
vt 0.830116 0.595496
vt 0.087380 0.287794
vt 0.023027 0.295358
vt 0.045519 0.133729
vt 0.102933 0.166206
vt 0.379326 0.385126
vt 0.372537 0.385609
vt 0.373991 0.218681
vt 0.380789 0.218092
vt 0.472712 0.500535
vt 0.517828 0.506346
vt 0.536259 0.578659
vt 0.491610 0.590153
vt 0.589086 0.968110
vt 0.547795 0.965730
vt 0.547795 0.683430
vt 0.589086 0.685058
vt 0.094015 0.300114
vt 0.089673 0.320935
vt 0.009026 0.310065
vt 0.182301 0.933001
vt 0.116160 0.931431
vt 0.116160 0.827248
vt 0.182301 0.828818
vt 0.450631 0.385833
vt 0.450341 0.199541
vt 0.306483 0.245679
vt 0.312371 0.006096
vt 0.908993 0.507601
vt 0.952002 0.507092
vt 0.952705 0.557074
vt 0.910299 0.576533
vt 0.965188 0.403930
vt 0.965188 0.213358
vt 0.970656 0.215076
vt 0.970656 0.399617
vt 0.306361 0.384957
vt 0.306050 0.263316
vt 0.765597 0.446847
vt 0.765597 0.623752
vt 0.693586 0.823492
vt 0.745910 0.760096
vt 0.764092 0.833688
vt 0.895425 0.264655
vt 0.829278 0.264585
vt 0.309001 0.570428
vt 0.306420 0.407875
vt 0.382214 0.586815
vt 0.469152 0.483651
vt 0.509571 0.279048
vt 0.554904 0.287465
vt 0.514355 0.492722
vt 0.965188 0.197127
vt 0.965188 0.006096
vt 0.970800 0.016181
vt 0.970800 0.201167
vt 0.908747 0.494613
vt 0.909148 0.285218
vt 0.952170 0.286156
vt 0.951769 0.495551
vt 0.016185 0.342668
vt 0.081017 0.332065
vt 0.113286 0.519939
vt 0.053708 0.529679
vt 0.125205 0.527670
vt 0.246203 0.507828
vt 0.249599 0.527587
vt 0.128601 0.547429
vt 0.896264 0.006165
vt 0.830116 0.006096
vt 0.385362 0.789660
vt 0.453520 0.587522
vt 0.456668 0.790367
vt 0.776576 0.898713
vt 0.839141 0.845814
vt 0.839141 0.932084
vt 0.054179 0.559687
vt 0.050382 0.539995
vt 0.390552 0.859243
vt 0.404057 0.816391
vt 0.448771 0.802559
vt 0.430583 0.920549
vt 0.325098 0.849915
vt 0.448771 0.993904
vt 0.378244 0.983845
vt 0.313819 0.923087
vt 0.371504 0.982815
vt 0.306050 0.973487
vt 0.646854 0.397727
vt 0.640478 0.305576
vt 0.683638 0.319318
vt 0.692797 0.353005
vt 0.758920 0.350337
vt 0.762874 0.407484
vt 0.261357 0.908950
vt 0.194784 0.852148
vt 0.261357 0.827248
vt 0.210672 0.301093
vt 0.214416 0.289031
vt 0.424116 0.358964
vt 0.621439 0.915820
vt 0.665196 0.845880
vt 0.669259 0.915820
vt 0.223756 0.237599
vt 0.112608 0.163716
vt 0.122869 0.155831
vt 0.227821 0.235311
vt 0.892860 0.926003
vt 0.851696 0.917984
vt 0.182301 0.940670
vt 0.116160 0.939100
vt 0.006242 0.334579
vt 0.100331 0.815056
vt 0.051168 0.560089
vt 0.172568 0.803247
vt 0.816052 0.293384
vt 0.744043 0.293384
vt 0.051952 0.101560
vt 0.249712 0.006096
vt 0.778081 0.585783
vt 0.778081 0.315782
vt 0.791877 0.305576
vt 0.791877 0.594990
vt 0.036462 0.113481
vt 0.266705 0.074610
vt 0.047370 0.540396
vt 0.749144 0.006096
vt 0.993758 0.120010
vt 0.993758 0.176501
vt 0.983284 0.186629
vt 0.983284 0.111084
vt 0.180477 0.792396
vt 0.282463 0.775672
vt 0.293566 0.783405
vt 0.235100 0.500095
vt 0.202763 0.311944
vt 0.100777 0.328669
vt 0.139704 0.555162
vt 0.228190 0.223673
vt 0.282725 0.187447
vt 0.293566 0.191639
vt 0.260171 0.089183
vt 0.213174 0.241959
vt 0.120101 0.180090
vt 0.105170 0.289623
vt 0.133114 0.516819
vt 0.241690 0.538438
vt 0.206207 0.280322
vt 0.140116 0.156975
vt 0.141594 0.549367
vt 0.240353 0.533172
vt 0.279835 0.762898
vt 0.181077 0.779093
vt 0.227280 0.228368
vt 0.141993 0.163781
vt 0.258249 0.098134
vt 0.280090 0.193289
vt 0.007909 0.848785
vt 0.103677 0.827248
vt 0.103677 0.934250
vt 0.006242 0.886479
vt 0.103899 0.330041
vt 0.202657 0.313846
vt 0.233971 0.496042
vt 0.135213 0.512237
vt 0.724161 0.847181
vt 0.724161 0.955152
vt 0.719462 0.950434
vt 0.719462 0.845880
vt 0.760741 0.845880
vt 0.760741 0.946685
vt 0.755079 0.946160
vt 0.755079 0.848545
vt 0.983284 0.061822
vt 0.984602 0.007301
vt 0.990043 0.006096
vt 0.988767 0.058891
vt 0.736645 0.946348
vt 0.736645 0.845880
vt 0.742595 0.847082
vt 0.742595 0.944371
vt 0.905344 0.952843
vt 0.905344 0.845814
vt 0.910786 0.852202
vt 0.910786 0.955844
vt 0.275306 0.965396
vt 0.280893 0.956515
vt 0.601570 0.929258
vt 0.601570 0.688972
vt 0.607038 0.683430
vt 0.607038 0.916112
vt 0.983140 0.364865
vt 0.983140 0.213358
vt 0.988752 0.216421
vt 0.988752 0.363133
vt 0.984602 0.098892
vt 0.990043 0.094788
vt 0.633834 0.279638
vt 0.732070 0.281290
vt 0.621439 0.291322
vt 0.626460 0.008525
vt 0.729909 0.275506
vt 0.636183 0.273929
vt 0.804361 0.568170
vt 0.804361 0.305576
vt 0.810466 0.311414
vt 0.810466 0.561954
vt 0.971317 0.416121
vt 0.971317 0.574185
vt 0.965188 0.569080
vt 0.965188 0.418272
vt 0.706978 0.845880
vt 0.706978 0.922535
vt 0.681742 0.846795
vt 0.705916 0.698589
vt 0.719392 0.655599
vt 0.764092 0.641797
vt 0.629206 0.762497
vt 0.640481 0.689134
vt 0.686873 0.822484
vt 0.621439 0.813029
usemtl None
s off
f 17/1 6/2 2/3 18/4
f 51/5 7/6 3/7 52/8
f 71/9 69/10 29/11 31/12
f 61/13 5/14 1/15 66/16
f 53/17 8/18 12/19 56/20
f 56/20 12/19 16/21 58/22
f 92/23 91/24 36/25 34/26
f 65/27 6/28 10/29 67/30
f 17/1 5/31 9/32 19/33
f 124/34 122/35 138/36 140/37
f 93/38 89/39 35/40 37/41
f 67/42 10/43 14/44 68/45
f 19/33 9/32 13/46 20/47
f 5/31 17/1 18/4 1/48
f 94/49 93/38 37/41 39/50
f 76/51 72/52 28/53 26/54
f 6/2 17/1 19/33 10/55
f 99/56 102/57 101/58 100/59
f 10/55 19/33 20/47 14/60
f 151/61 152/62 156/63 155/64
f 116/65 105/66 106/67 111/68
f 128/69 126/70 142/71 144/72
f 91/73 90/74 38/75 36/76
f 114/77 107/78 104/79 103/80
f 69/81 73/82 27/83 29/84
f 75/85 76/51 26/54 24/86
f 81/87 84/88 48/89 50/90
f 110/91 115/92 109/93 108/94
f 79/95 83/96 47/97 45/98
f 84/99 82/100 46/101 48/102
f 73/103 74/104 25/105 27/106
f 87/107 21/108 80/109
f 95/110 92/111 34/112 32/113
f 80/114 79/95 45/98 43/115
f 89/39 96/116 33/117 35/40
f 82/118 85/119 44/120 46/121
f 129/122 121/123 137/124 145/125
f 83/96 86/126 49/127 47/97
f 72/52 70/128 30/129 28/53
f 26/130 22/131 24/132
f 65/133 51/5 52/8 60/134
f 8/18 53/17 54/135 4/136
f 61/13 53/17 56/20 62/137
f 7/138 51/139 55/140 11/141
f 130/142 118/143 134/144 146/145
f 11/146 55/147 57/148 15/149
f 98/150 97/151 113/152 112/153
f 53/17 61/13 66/16 54/135
f 51/139 65/27 67/30 55/140
f 59/154 57/155 68/156 64/157
f 55/147 67/42 68/45 57/148
f 6/158 65/133 60/134 2/159
f 5/14 61/13 62/137 9/160
f 9/160 62/137 63/161 13/162
f 58/163 59/164 56/165
f 62/166 56/167 59/154 64/157
f 34/168 36/169 38/170 41/171
f 32/172 34/168 41/171 39/173
f 32/172 39/173 37/174 40/175
f 35/176 33/177 40/175 37/174
f 77/178 74/179 73/180 69/181
f 69/181 71/182 75/85 77/178
f 76/51 75/85 71/182 78/183
f 72/52 76/51 78/183 70/128
f 3/7 7/6 84/88 81/87
f 12/19 8/18 83/96 79/95
f 7/138 11/141 82/100 84/99
f 21/184 79/185 80/186
f 11/146 15/149 85/119 82/118
f 15/187 21/108 87/107 85/188
f 8/18 4/136 86/126 83/96
f 21/189 16/21 12/19
f 48/102 46/101 91/24 92/23
f 45/98 47/97 89/39 93/38
f 93/190 94/191 88/192
f 44/193 42/194 88/195 90/196
f 46/197 44/198 90/74 91/73
f 50/199 48/200 92/111 95/110
f 47/97 49/127 96/116 89/39
f 97/151 98/150 16/201 21/108
f 99/56 100/59 13/202 63/203
f 100/59 101/58 20/204 13/202
f 101/58 102/57 64/157 20/204
f 103/80 104/79 24/205 22/206
f 106/67 105/66 94/207 39/208
f 104/209 107/210 75/211 24/212
f 108/94 109/93 43/213 42/194
f 110/91 108/94 42/194 87/107
f 111/68 106/67 39/208 41/214
f 98/150 112/153 58/215 16/201
f 113/152 97/151 21/108 59/154
f 112/153 113/152 59/154 58/215
f 102/57 99/56 63/203 64/157
f 114/77 103/80 22/206 77/216
f 107/217 114/218 77/219 75/220
f 109/93 115/92 80/109 43/213
f 115/92 110/91 87/107 80/109
f 116/65 111/68 41/214 88/195
f 105/66 116/65 88/195 94/207
f 117/221 118/222 14/223 20/204
f 119/224 120/225 15/187 57/155
f 120/225 121/226 21/108 15/187
f 123/227 117/221 20/204 64/157
f 122/228 124/229 38/230 90/196
f 124/229 125/231 41/214 38/230
f 126/232 128/233 42/194 44/193
f 128/233 127/234 87/107 42/194
f 121/226 129/235 59/154 21/108
f 129/235 119/224 57/155 59/154
f 118/222 130/236 68/156 14/223
f 130/236 123/227 64/157 68/156
f 131/237 126/232 44/193 85/188
f 127/234 131/237 85/188 87/107
f 125/231 132/238 88/195 41/214
f 132/238 122/228 90/196 88/195
f 139/239 146/240 134/241 133/242
f 138/243 148/244 141/245 140/246
f 147/247 143/248 144/249 142/250
f 137/251 136/252 135/253 145/254
f 122/255 132/256 148/257 138/258
f 121/259 120/260 136/261 137/262
f 131/263 127/264 143/265 147/266
f 118/222 117/221 133/242 134/241
f 123/267 130/268 146/269 139/270
f 119/224 129/235 145/254 135/253
f 127/271 128/272 144/273 143/274
f 125/275 124/34 140/37 141/276
f 117/277 123/278 139/279 133/280
f 132/238 125/231 141/245 148/244
f 120/281 119/282 135/283 136/284
f 126/285 131/263 147/266 142/286
f 149/287 150/288 22/206 25/289
f 151/61 149/287 25/289 74/290
f 150/288 152/62 77/216 22/206
f 152/62 151/61 74/290 77/216
f 155/64 156/63 154/291 153/292
f 152/293 150/294 154/295 156/296
f 149/297 151/298 155/299 153/300
f 150/288 149/287 153/292 154/291
f 79/301 21/302 12/303
f 29/304 27/305 25/306 22/131
f 23/307 31/308 29/304 28/309
f 28/309 29/304 22/131 26/130
f 30/310 23/307 28/309
