# Blender v2.72 (sub 0) OBJ File: 'BSwap_LPBushes_01.blend'
# www.blender.org
mtllib Bush03.mtl
o Bushes_02
v -46.951160 4.802702 -9.423629
v -23.768780 33.520775 -9.890199
v -63.309872 15.535677 13.589449
v -78.229523 38.241394 7.390385
v -61.457382 57.560658 -12.368104
v 13.219052 110.829025 -2.661046
v -24.379587 80.666260 -23.135130
v 48.349880 98.623062 -9.366501
v 43.179573 70.141701 15.375993
v 12.523685 39.840996 -3.307539
v 10.725588 65.571220 -6.975130
v 0.362800 79.429062 31.639395
v -15.245717 42.718948 -8.525769
v -44.246353 55.967110 -10.543197
v -45.892685 86.413612 10.519048
v 29.956524 22.294806 -33.522999
v 6.668355 54.241352 -60.063965
v 9.841842 -1.670315 -19.320753
v -2.550758 21.864189 2.845989
v -26.838442 49.343941 -19.051401
v -29.207827 25.609877 -35.651005
v -5.349044 1.944949 -1.915637
v -9.408420 44.709591 -56.237831
v -4.441203 67.318192 -30.489216
v 20.048450 48.663429 -0.878731
v -13.379229 70.355461 1.151552
v -19.849417 56.604416 40.374889
v -6.666137 39.024693 -11.431753
v -31.797260 19.620577 -12.145497
v -52.683472 24.760889 17.762590
v -30.698053 68.746025 -13.108736
v -24.924288 29.390530 -17.081196
v -47.215603 65.922981 14.987395
v -30.422199 56.816422 38.352432
v -7.103763 32.896420 27.877373
v -23.259438 74.375801 -21.819603
v 17.427683 55.174656 -14.203988
v -42.869148 85.747482 3.766669
v -29.394033 81.532478 35.915348
v -10.556400 53.297443 34.747814
v -41.007248 44.191803 17.183468
v -12.507854 42.859413 -21.806528
v -28.637810 35.735691 50.130085
v 7.235827 26.081070 51.550797
v 14.680066 10.187235 20.165234
v 32.174835 43.937553 -9.564830
v 30.631220 95.059639 -29.257101
v -0.223513 33.182514 10.402718
v 10.527324 56.856270 40.603397
v 5.694120 103.550957 26.000002
v -15.539147 14.982766 -3.676315
v 19.957390 46.949425 -23.335943
v -33.487816 28.411762 26.105551
v -2.597917 23.554104 46.915661
v 29.143208 54.375469 33.139801
v -48.644241 34.670708 -45.773399
v -13.141835 26.117544 -13.447797
v -75.903519 19.047106 -28.177914
v -76.704407 21.425211 11.317392
v -44.732277 39.463909 29.640471
v -67.877495 45.431404 -2.359648
v -67.854897 72.860970 -54.702065
v -28.182135 41.457123 17.533978
v -9.604384 22.742186 -16.390791
v -14.987494 39.400677 -59.970104
v -29.240997 65.498199 -49.625412
v -15.865413 -20.155151 3.413104
v -67.637604 67.010231 -45.390427
v -63.604023 50.220764 -9.684132
v -36.536251 31.766973 -5.476909
v -24.950689 79.131920 -1.520151
v -16.269381 -21.492283 1.120828
v -55.343208 82.647575 -18.650063
v -56.104324 46.495743 -32.157009
v -42.870636 26.964968 -9.319439
v -13.300852 88.824089 29.031214
v 1.480415 -25.454355 2.041476
v 6.664673 103.230492 -17.209896
v 29.955832 68.585846 -19.952600
v 16.390928 36.738342 -0.170718
v 48.860443 44.075176 4.157578
v 18.477388 -22.932991 1.782331
v 34.475018 53.084949 26.428312
v 12.280612 36.939285 17.939680
v 17.787769 17.962593 4.452591
v 30.819309 44.326847 27.174896
v 18.015438 -23.105896 1.791562
v 41.242023 55.202370 6.726204
v 32.647232 35.653450 -11.320514
v 33.133881 14.685875 -0.105772
v 15.890692 43.832279 -23.746845
v 2.431720 -19.636650 -1.862056
v -4.421484 45.541748 -39.960911
v -18.399183 30.045296 -23.270834
v -6.403945 16.466726 -10.350739
v -6.198910 37.066696 -38.110577
v 2.059473 -19.851059 -1.700748
v 6.520119 52.355213 -25.359432
v 7.627577 37.460388 -4.069620
v 8.792643 16.364321 -10.626698
v -23.518879 90.870911 -6.089141
v 1.632073 -24.215286 1.799474
v 27.345186 102.877258 -6.116338
v 37.243851 68.678909 15.664035
v 12.339734 37.870609 12.109171
v -9.947578 55.571064 -18.957504
v -38.673157 5.361551 -6.876307
v -35.008240 92.401543 -20.616148
v -62.534859 76.097961 -49.299786
v -80.494537 32.945335 -44.723587
v 60.710171 35.340126 30.333794
v 25.400419 10.403958 6.165143
v 79.484253 47.689701 1.485341
v 59.182236 57.810108 -31.687414
v 18.091093 50.927738 -31.672285
v 51.855145 15.048666 -35.320271
v 80.301865 49.637127 -7.317611
v 27.801928 2.980483 -7.093477
v 14.947626 31.369980 22.329994
v 32.376781 72.182083 20.102900
v -16.764315 42.488125 -2.347562
v 5.898434 45.913467 -39.771935
v -33.114239 15.526470 0.583958
v -53.920815 25.757492 -21.340902
v -35.794334 26.119768 -56.284801
v -34.669960 5.020428 -48.977962
v -7.742535 8.093210 -11.901550
v -37.557659 33.228329 -66.131813
v -56.712505 45.985470 -41.933945
v -33.007080 52.636604 -8.902549
v 29.001621 46.053616 9.915510
v 23.819675 15.932378 -4.628367
v 19.592772 41.005024 32.512005
v 23.091627 15.788972 42.821835
v 35.739983 -3.456726 26.075478
v 4.121385 7.454333 21.467251
v 17.747269 37.089424 36.932705
v 15.546890 9.802563 -2.499078
v 42.630375 20.854588 -4.040163
v 55.073620 30.702602 21.852173
v 37.662628 77.658630 -9.803635
v 15.416799 45.787899 0.887563
v 48.449856 83.463112 20.826305
v 26.944551 93.328217 39.968849
v -3.594903 76.827606 33.535473
v 28.763147 97.080177 -6.943857
v 35.033054 95.339882 30.807064
v 2.671273 79.743492 -5.741914
v 7.175506 51.993393 1.049863
v 31.430420 49.502247 24.094294
v 43.915474 34.610683 18.941933
v 14.150939 28.102379 -0.839827
v 61.866035 21.968773 3.534073
v 58.262119 22.672977 -25.713640
v 33.028301 36.252602 -36.332748
v 52.973473 47.555782 -12.240814
v 68.957436 65.897575 15.321714
v 26.503315 46.540344 -10.794118
v 28.274509 29.214544 9.486728
v 39.928093 45.309288 35.807510
v -19.807434 63.634010 -44.390507
v 4.904537 8.204273 -2.728407
v -3.238001 58.466091 -66.364304
v 16.956762 49.052776 -48.228874
v 9.032337 40.816860 -27.211771
v 68.553749 55.284496 19.288948
v 13.452882 9.231498 3.105964
v 65.786156 71.360886 -3.470453
v 57.222610 48.185421 -18.129763
v 47.397396 30.689457 -5.102786
v -0.393868 13.023438 8.732186
v -27.067413 22.259031 -9.512169
v -15.025486 -2.784982 25.836285
v -30.632250 10.110919 41.134483
v -42.507015 32.851330 26.702187
v 2.548943 22.154100 23.928881
v -21.206345 6.696048 38.656677
v -13.317159 39.238628 12.113098
v -27.333006 29.547600 -4.950201
v -35.946358 4.124246 2.919796
vt -0.005300 0.347724
vt 0.544377 0.279589
vt 0.135420 0.984461
vt 0.804606 0.602781
vt 0.617806 0.985877
vt 0.888791 0.012371
vt 1.010903 0.385091
vt 0.692843 0.426958
vt 0.074140 0.022838
vt 0.486415 0.212106
usemtl Bushes01
s 1
f 2/1 1/2 5/3
f 1/2 3/4 4/5
f 5/3 1/2 4/5
f 8/4 9/5 10/3
f 7/1 6/2 8/4
f 10/3 7/1 8/4
f 12/1 11/2 15/3
f 11/2 13/4 14/5
f 15/3 11/2 14/5
f 18/4 19/5 20/3
f 17/1 16/2 18/4
f 20/3 17/1 18/4
f 23/4 24/5 25/3
f 22/1 21/2 23/4
f 25/3 22/1 23/4
f 27/1 26/2 30/3
f 26/2 28/4 29/5
f 30/3 26/2 29/5
f 32/1 31/2 35/3
f 31/2 33/4 34/5
f 35/3 31/2 34/5
f 36/2 38/4 39/5
f 41/2 43/4 44/5
f 40/3 37/1 39/5
f 37/1 36/2 39/5
f 45/3 42/1 44/5
f 42/1 41/2 44/5
f 48/4 49/5 50/3
f 47/1 46/2 48/4
f 50/3 47/1 48/4
f 53/4 54/5 55/3
f 52/1 51/2 53/4
f 55/3 52/1 53/4
f 57/1 56/2 60/3
f 65/3 62/1 63/4
f 56/2 58/4 59/5
f 62/1 61/2 63/4
f 64/5 65/3 63/4
f 66/6 68/7 69/8
f 67/9 66/6 70/10
f 66/6 69/8 70/10
f 71/6 73/7 74/8
f 72/9 71/6 75/10
f 71/6 74/8 75/10
f 76/6 78/7 79/8
f 77/9 76/6 80/10
f 76/6 79/8 80/10
f 81/6 83/7 84/8
f 82/9 81/6 85/10
f 81/6 84/8 85/10
f 86/6 88/7 89/8
f 87/9 86/6 90/10
f 86/6 89/8 90/10
f 91/6 93/7 94/8
f 92/9 91/6 95/10
f 91/6 94/8 95/10
f 96/6 98/7 99/8
f 97/9 96/6 100/10
f 96/6 99/8 100/10
f 101/6 103/7 104/8
f 102/9 101/6 105/10
f 101/6 104/8 105/10
f 110/3 107/1 108/4
f 107/1 106/2 108/4
f 109/5 110/3 108/4
f 112/1 111/2 115/3
f 111/2 113/4 114/5
f 117/1 116/2 120/3
f 116/2 118/4 119/5
f 123/4 124/5 125/3
f 122/1 121/2 123/4
f 125/3 122/1 123/4
f 128/4 129/5 130/3
f 127/1 126/2 128/4
f 130/3 127/1 128/4
f 132/1 131/2 135/3
f 131/2 133/4 134/5
f 137/1 136/2 140/3
f 136/2 138/4 139/5
f 142/1 141/2 145/3
f 141/2 143/4 144/5
f 145/3 141/2 144/5
f 147/1 146/2 150/3
f 146/2 148/4 149/5
f 150/3 146/2 149/5
f 152/1 151/2 155/3
f 151/2 153/4 154/5
f 158/4 159/5 160/3
f 157/1 156/2 158/4
f 160/3 157/1 158/4
f 161/6 163/7 164/8
f 162/9 161/6 165/10
f 161/6 164/8 165/10
f 166/6 168/7 169/8
f 167/9 166/6 170/10
f 166/6 169/8 170/10
f 172/1 171/2 175/3
f 171/2 173/4 174/5
f 175/3 171/2 174/5
f 177/1 176/2 180/3
f 176/2 178/4 179/5
f 180/3 176/2 179/5
f 60/3 56/2 59/5
f 115/3 111/2 114/5
f 120/3 116/2 119/5
f 135/3 131/2 134/5
f 140/3 136/2 139/5
f 155/3 151/2 154/5
