# Blender v2.72 (sub 0) OBJ File: 'Low poly foliege.blend'
# www.blender.org
mtllib Leaves04.mtl
o leaf_mapple
v 3.664381 0.110114 -2.530040
v 3.664381 0.150887 -2.110159
v 3.244500 0.168960 -2.110159
v 3.244500 0.168960 -2.530040
v 3.454440 0.131160 -2.110159
v 3.664381 0.112247 -2.320100
v 3.454440 0.106429 -2.530040
v 3.244500 0.189228 -2.320100
v 3.454440 0.106429 -2.320100
vt 0.249756 0.509386
vt 0.499756 0.509386
vt 0.499756 0.759386
vt 0.249756 0.759386
vt -0.000244 0.509386
vt -0.000244 0.759386
vt 0.499756 1.009386
vt 0.249756 1.009386
vt -0.000244 1.009386
usemtl single_leaves
s off
f 7/1 4/2 8/3 9/4
f 1/5 7/1 9/4 6/6
f 9/4 8/3 3/7 5/8
f 6/6 9/4 5/8 2/9
