# Blender v2.72 (sub 0) OBJ File: 'par_terre.blend'
# www.blender.org
mtllib par_terre5.mtl
o Plane.003_Plane.004
v -0.556421 0.277283 1.327602
v 1.443579 0.277283 1.327602
v -0.556421 -0.010488 -3.769273
v 1.443579 -0.010488 -3.769273
v -0.556421 0.277283 -1.770702
v 0.443579 0.277283 1.327602
v 1.443579 0.277283 -1.770702
v 0.443579 0.277283 -3.769273
v 0.443579 0.277283 -1.770702
vt 0.535156 0.308594
vt 0.875000 0.308594
vt 0.785156 1.000000
vt 0.535156 1.000000
vt 0.195312 0.308594
vt 0.285156 1.000000
vt 0.195312 0.000000
vt 0.515625 0.000000
vt 0.875000 0.000000
usemtl Material
s off
f 9/1 7/2 4/3 8/4
f 5/5 9/1 8/4 3/6
f 1/7 6/8 9/1 5/5
f 6/8 2/9 7/2 9/1
