%YAML 1.1
%TAG !u! tag:unity3d.com,2011:
--- !u!21 &2100000
Material:
  serializedVersion: 6
  m_ObjectHideFlags: 0
  m_PrefabParentObject: {fileID: 0}
  m_PrefabInternal: {fileID: 0}
  m_Name: Water4Simple 2
  m_Shader: {fileID: 4800000, guid: 8aaff0751054e4a9cb4642d01eaf5be9, type: 3}
  m_ShaderKeywords: 
  m_LightmapFlags: 5
  m_CustomRenderQueue: -1
  stringTagMap: {}
  m_SavedProperties:
    serializedVersion: 2
    m_TexEnvs:
    - first:
        name: _BumpMap
      second:
        m_Texture: {fileID: 2800000, guid: fb6566c21f717904f83743a5a76dd0b0, type: 3}
        m_Scale: {x: 1, y: 1}
        m_Offset: {x: 0, y: 0}
    - first:
        name: _CubeTex
      second:
        m_Texture: {fileID: 0}
        m_Scale: {x: 1, y: 1}
        m_Offset: {x: 0, y: 0}
    - first:
        name: _DisplacementHeightMap
      second:
        m_Texture: {fileID: 2800000, guid: a782b26d6436b48d9882906b9f8ca31a, type: 2}
        m_Scale: {x: 1, y: 1}
        m_Offset: {x: 0, y: 0}
    - first:
        name: _MainTex
      second:
        m_Texture: {fileID: 2800000, guid: e6f8288974c664a309d6c66de636978c, type: 3}
        m_Scale: {x: 1, y: 1}
        m_Offset: {x: 0, y: 0}
    - first:
        name: _ReflectionTex
      second:
        m_Texture: {fileID: 0}
        m_Scale: {x: 1, y: 1}
        m_Offset: {x: 0, y: 0}
    - first:
        name: _RefractionTex
      second:
        m_Texture: {fileID: 0}
        m_Scale: {x: 1, y: 1}
        m_Offset: {x: 0, y: 0}
    - first:
        name: _SecondDisplacementHeightMap
      second:
        m_Texture: {fileID: 2800000, guid: 4facc21e08e3a43ed97c930f7dae6e7b, type: 2}
        m_Scale: {x: 1, y: 1}
        m_Offset: {x: 0, y: 0}
    - first:
        name: _ShoreTex
      second:
        m_Texture: {fileID: 2800000, guid: 36dd0b22da8874ed38075789055ca664, type: 3}
        m_Scale: {x: 1, y: 1}
        m_Offset: {x: 0, y: 0}
    - first:
        name: _ThirdDisplacementHeightMap
      second:
        m_Texture: {fileID: 2800000, guid: dc30b984e8e3c4cdfb38d5fceb411602, type: 2}
        m_Scale: {x: 1, y: 1}
        m_Offset: {x: 0, y: 0}
    - first:
        name: _WavesTex
      second:
        m_Texture: {fileID: 0}
        m_Scale: {x: 1, y: 1}
        m_Offset: {x: 0, y: 0}
    m_Floats:
    - first:
        name: _FresnelScale
      second: 0.42
    - first:
        name: _GerstnerIntensity
      second: 1
    - first:
        name: _HeightDisplacement
      second: 2.3370318
    - first:
        name: _NormalsDisplacement
      second: 72.72728
    - first:
        name: _Shininess
      second: 30
    m_Colors:
    - first:
        name: _AnimationDirection
      second: {r: 2, g: 1, b: -1, a: 1}
    - first:
        name: _AnimationTiling
      second: {r: 0.4, g: 0.39099997, b: 0.56, a: 0.7}
    - first:
        name: _BaseColor
      second: {r: 0.5441177, g: 0.44511694, b: 0.23205018, a: 1}
    - first:
        name: _BumpDirection
      second: {r: -91.47, g: 2.48, b: -6.54, a: -1.7}
    - first:
        name: _BumpTiling
      second: {r: 0.2, g: 0.2, b: 0.2, a: 0.1}
    - first:
        name: _Color
      second: {r: 1, g: 1, b: 1, a: 1}
    - first:
        name: _DepthColor
      second: {r: 0.29811764, g: 0.36611718, b: 0.39552242, a: 0.34509805}
    - first:
        name: _DistortParams
      second: {r: 1.52, g: 1.84, b: 1.28, a: -0.2}
    - first:
        name: _Foam
      second: {r: 0.3275862, g: 0.7471264, b: 0, a: 0}
    - first:
        name: _GAmplitude
      second: {r: 0, g: 0, b: 0, a: 0}
    - first:
        name: _GDirectionAB
      second: {r: 0.85, g: 0.3, b: 0.25, a: 0.25}
    - first:
        name: _GDirectionCD
      second: {r: -0.3, g: -0.9, b: 0.5, a: 0.5}
    - first:
        name: _GFrequency
      second: {r: 0.5, g: 0.25, b: 0.6, a: 0.245}
    - first:
        name: _GSpeed
      second: {r: 4, g: 2, b: 1, a: 1}
    - first:
        name: _GSteepness
      second: {r: 3.0301306, g: 1, b: 1, a: 1}
    - first:
        name: _InvFadeParemeter
      second: {r: 0.88, g: 0.08562102, b: 0.09414239, a: 0.48031002}
    - first:
        name: _ReflectionColor
      second: {r: 0.9191176, g: 0.7736994, b: 0.51362455, a: 0.741}
    - first:
        name: _RefractionFog
      second: {r: 0.8681778, g: 0.8797176, b: 0.8880597, a: 1}
    - first:
        name: _SpecularColor
      second: {r: 0.5191933, g: 0.62491274, b: 0.71323526, a: 1}
    - first:
        name: _WorldLightDir
      second: {r: 0.013992369, g: -0.17359081, b: -0.9847186, a: 0}
--- !u!1002 &2100001
EditorExtensionImpl:
  serializedVersion: 6
